2019-11-19 14:06:21,615 - Loaded System Directive: org.apache.velocity.runtime.directive.Evaluate
2019-11-19 14:06:21,616 - Loaded System Directive: org.apache.velocity.runtime.directive.Literal
2019-11-19 14:06:21,618 - Loaded System Directive: org.apache.velocity.runtime.directive.Macro
2019-11-19 14:06:21,622 - Loaded System Directive: org.apache.velocity.runtime.directive.Parse
2019-11-19 14:06:21,624 - Loaded System Directive: org.apache.velocity.runtime.directive.Include
2019-11-19 14:06:21,626 - Loaded System Directive: org.apache.velocity.runtime.directive.Foreach
2019-11-19 14:06:21,671 - Created '20' parsers.
2019-11-19 14:06:21,681 - Velocimacro : "velocimacro.library" is not set.  Trying default library: VM_global_library.vm
2019-11-19 14:06:21,681 - Velocimacro : Default library not found.
2019-11-19 14:06:21,681 - Velocimacro : allowInline = true : VMs can be defined inline in templates
2019-11-19 14:06:21,681 - Velocimacro : allowInlineToOverride = false : VMs defined inline may NOT replace previous VM definitions
2019-11-19 14:06:21,681 - Velocimacro : allowInlineLocal = false : VMs defined inline will be global in scope if allowed.
2019-11-19 14:06:21,681 - Velocimacro : autoload off : VM system will not automatically reload global library macros
2019-11-19 15:16:10,102 - Log4JLogChute initialized using file 'velocity.log'
2019-11-19 15:16:10,103 - Initializing Velocity, Calling init()...
2019-11-19 15:16:10,104 - Starting Apache Velocity v1.7 (compiled: 2010-11-19 12:14:37)
2019-11-19 15:16:10,104 - Default Properties File: org\apache\velocity\runtime\defaults\velocity.properties
2019-11-19 15:16:10,104 - Trying to use logger class org.apache.velocity.runtime.log.AvalonLogChute
2019-11-19 15:16:10,104 - Target log system for org.apache.velocity.runtime.log.AvalonLogChute is not available (java.lang.NoClassDefFoundError: org/apache/log/format/Formatter).  Falling back to next log system...
2019-11-19 15:16:10,104 - Trying to use logger class org.apache.velocity.runtime.log.Log4JLogChute
2019-11-19 15:16:10,104 - Using logger class org.apache.velocity.runtime.log.Log4JLogChute
2019-11-19 15:16:10,112 - ResourceLoader instantiated: org.apache.velocity.runtime.resource.loader.FileResourceLoader
2019-11-19 15:16:10,114 - Do unicode file recognition:  false
2019-11-19 15:16:10,114 - FileResourceLoader : adding path '.'
2019-11-19 15:16:10,148 - ResourceCache: initialized (class org.apache.velocity.runtime.resource.ResourceCacheImpl) with class java.util.Collections$SynchronizedMap cache map.
2019-11-19 15:16:10,151 - Loaded System Directive: org.apache.velocity.runtime.directive.Stop
2019-11-19 15:16:10,152 - Loaded System Directive: org.apache.velocity.runtime.directive.Define
2019-11-19 15:16:10,152 - Loaded System Directive: org.apache.velocity.runtime.directive.Break
2019-11-19 15:16:10,153 - Loaded System Directive: org.apache.velocity.runtime.directive.Evaluate
2019-11-19 15:16:10,154 - Loaded System Directive: org.apache.velocity.runtime.directive.Literal
2019-11-19 15:16:10,155 - Loaded System Directive: org.apache.velocity.runtime.directive.Macro
2019-11-19 15:16:10,156 - Loaded System Directive: org.apache.velocity.runtime.directive.Parse
2019-11-19 15:16:10,158 - Loaded System Directive: org.apache.velocity.runtime.directive.Include
2019-11-19 15:16:10,159 - Loaded System Directive: org.apache.velocity.runtime.directive.Foreach
2019-11-19 15:16:10,188 - Created '20' parsers.
2019-11-19 15:16:10,196 - Velocimacro : "velocimacro.library" is not set.  Trying default library: VM_global_library.vm
2019-11-19 15:16:10,197 - Velocimacro : Default library not found.
2019-11-19 15:16:10,197 - Velocimacro : allowInline = true : VMs can be defined inline in templates
2019-11-19 15:16:10,197 - Velocimacro : allowInlineToOverride = false : VMs defined inline may NOT replace previous VM definitions
2019-11-19 15:16:10,197 - Velocimacro : allowInlineLocal = false : VMs defined inline will be global in scope if allowed.
2019-11-19 15:16:10,197 - Velocimacro : autoload off : VM system will not automatically reload global library macros
2019-11-19 15:19:00,074 - Log4JLogChute initialized using file 'velocity.log'
2019-11-19 15:19:00,075 - Initializing Velocity, Calling init()...
2019-11-19 15:19:00,075 - Starting Apache Velocity v1.7 (compiled: 2010-11-19 12:14:37)
2019-11-19 15:19:00,075 - Default Properties File: org\apache\velocity\runtime\defaults\velocity.properties
2019-11-19 15:19:00,075 - Trying to use logger class org.apache.velocity.runtime.log.AvalonLogChute
2019-11-19 15:19:00,075 - Target log system for org.apache.velocity.runtime.log.AvalonLogChute is not available (java.lang.NoClassDefFoundError: org/apache/log/format/Formatter).  Falling back to next log system...
2019-11-19 15:19:00,075 - Trying to use logger class org.apache.velocity.runtime.log.Log4JLogChute
2019-11-19 15:19:00,076 - Using logger class org.apache.velocity.runtime.log.Log4JLogChute
2019-11-19 15:19:00,108 - ResourceLoader instantiated: org.apache.velocity.runtime.resource.loader.FileResourceLoader
2019-11-19 15:19:00,130 - Do unicode file recognition:  false
2019-11-19 15:19:00,132 - FileResourceLoader : adding path '.'
2019-11-19 15:19:00,266 - ResourceCache: initialized (class org.apache.velocity.runtime.resource.ResourceCacheImpl) with class java.util.Collections$SynchronizedMap cache map.
2019-11-19 15:19:00,268 - Loaded System Directive: org.apache.velocity.runtime.directive.Stop
2019-11-19 15:19:00,269 - Loaded System Directive: org.apache.velocity.runtime.directive.Define
2019-11-19 15:19:00,270 - Loaded System Directive: org.apache.velocity.runtime.directive.Break
2019-11-19 15:19:00,291 - Loaded System Directive: org.apache.velocity.runtime.directive.Evaluate
2019-11-19 15:19:00,295 - Loaded System Directive: org.apache.velocity.runtime.directive.Literal
2019-11-19 15:19:00,297 - Loaded System Directive: org.apache.velocity.runtime.directive.Macro
2019-11-19 15:19:00,298 - Loaded System Directive: org.apache.velocity.runtime.directive.Parse
2019-11-19 15:19:00,300 - Loaded System Directive: org.apache.velocity.runtime.directive.Include
2019-11-19 15:19:00,301 - Loaded System Directive: org.apache.velocity.runtime.directive.Foreach
2019-11-19 15:19:00,424 - Created '20' parsers.
2019-11-19 15:19:00,453 - Velocimacro : "velocimacro.library" is not set.  Trying default library: VM_global_library.vm
2019-11-19 15:19:00,455 - Velocimacro : Default library not found.
2019-11-19 15:19:00,455 - Velocimacro : allowInline = true : VMs can be defined inline in templates
2019-11-19 15:19:00,455 - Velocimacro : allowInlineToOverride = false : VMs defined inline may NOT replace previous VM definitions
2019-11-19 15:19:00,455 - Velocimacro : allowInlineLocal = false : VMs defined inline will be global in scope if allowed.
2019-11-19 15:19:00,455 - Velocimacro : autoload off : VM system will not automatically reload global library macros
2019-11-19 15:19:40,456 - Log4JLogChute initialized using file 'velocity.log'
2019-11-19 15:19:40,457 - Initializing Velocity, Calling init()...
2019-11-19 15:19:40,458 - Starting Apache Velocity v1.7 (compiled: 2010-11-19 12:14:37)
2019-11-19 15:19:40,458 - Default Properties File: org\apache\velocity\runtime\defaults\velocity.properties
2019-11-19 15:19:40,458 - Trying to use logger class org.apache.velocity.runtime.log.AvalonLogChute
2019-11-19 15:19:40,458 - Target log system for org.apache.velocity.runtime.log.AvalonLogChute is not available (java.lang.NoClassDefFoundError: org/apache/log/format/Formatter).  Falling back to next log system...
2019-11-19 15:19:40,458 - Trying to use logger class org.apache.velocity.runtime.log.Log4JLogChute
2019-11-19 15:19:40,458 - Using logger class org.apache.velocity.runtime.log.Log4JLogChute
2019-11-19 15:19:40,467 - ResourceLoader instantiated: org.apache.velocity.runtime.resource.loader.FileResourceLoader
2019-11-19 15:19:40,469 - Do unicode file recognition:  false
2019-11-19 15:19:40,469 - FileResourceLoader : adding path '.'
2019-11-19 15:19:40,504 - ResourceCache: initialized (class org.apache.velocity.runtime.resource.ResourceCacheImpl) with class java.util.Collections$SynchronizedMap cache map.
2019-11-19 15:19:40,506 - Loaded System Directive: org.apache.velocity.runtime.directive.Stop
2019-11-19 15:19:40,507 - Loaded System Directive: org.apache.velocity.runtime.directive.Define
2019-11-19 15:19:40,507 - Loaded System Directive: org.apache.velocity.runtime.directive.Break
2019-11-19 15:19:40,508 - Loaded System Directive: org.apache.velocity.runtime.directive.Evaluate
2019-11-19 15:19:40,509 - Loaded System Directive: org.apache.velocity.runtime.directive.Literal
2019-11-19 15:19:40,510 - Loaded System Directive: org.apache.velocity.runtime.directive.Macro
2019-11-19 15:19:40,511 - Loaded System Directive: org.apache.velocity.runtime.directive.Parse
2019-11-19 15:19:40,512 - Loaded System Directive: org.apache.velocity.runtime.directive.Include
2019-11-19 15:19:40,513 - Loaded System Directive: org.apache.velocity.runtime.directive.Foreach
2019-11-19 15:19:40,543 - Created '20' parsers.
2019-11-19 15:19:40,549 - Velocimacro : "velocimacro.library" is not set.  Trying default library: VM_global_library.vm
2019-11-19 15:19:40,549 - Velocimacro : Default library not found.
2019-11-19 15:19:40,549 - Velocimacro : allowInline = true : VMs can be defined inline in templates
2019-11-19 15:19:40,549 - Velocimacro : allowInlineToOverride = false : VMs defined inline may NOT replace previous VM definitions
2019-11-19 15:19:40,549 - Velocimacro : allowInlineLocal = false : VMs defined inline will be global in scope if allowed.
2019-11-19 15:19:40,549 - Velocimacro : autoload off : VM system will not automatically reload global library macros
2019-11-19 15:27:38,552 - Log4JLogChute initialized using file 'velocity.log'
2019-11-19 15:27:38,553 - Initializing Velocity, Calling init()...
2019-11-19 15:27:38,553 - Starting Apache Velocity v1.7 (compiled: 2010-11-19 12:14:37)
2019-11-19 15:27:38,553 - Default Properties File: org\apache\velocity\runtime\defaults\velocity.properties
2019-11-19 15:27:38,553 - Trying to use logger class org.apache.velocity.runtime.log.AvalonLogChute
2019-11-19 15:27:38,553 - Target log system for org.apache.velocity.runtime.log.AvalonLogChute is not available (java.lang.NoClassDefFoundError: org/apache/log/format/Formatter).  Falling back to next log system...
2019-11-19 15:27:38,553 - Trying to use logger class org.apache.velocity.runtime.log.Log4JLogChute
2019-11-19 15:27:38,553 - Using logger class org.apache.velocity.runtime.log.Log4JLogChute
2019-11-19 15:27:38,560 - ResourceLoader instantiated: org.apache.velocity.runtime.resource.loader.FileResourceLoader
2019-11-19 15:27:38,562 - Do unicode file recognition:  false
2019-11-19 15:27:38,562 - FileResourceLoader : adding path '.'
2019-11-19 15:27:38,591 - ResourceCache: initialized (class org.apache.velocity.runtime.resource.ResourceCacheImpl) with class java.util.Collections$SynchronizedMap cache map.
2019-11-19 15:27:38,593 - Loaded System Directive: org.apache.velocity.runtime.directive.Stop
2019-11-19 15:27:38,594 - Loaded System Directive: org.apache.velocity.runtime.directive.Define
2019-11-19 15:27:38,595 - Loaded System Directive: org.apache.velocity.runtime.directive.Break
2019-11-19 15:27:38,596 - Loaded System Directive: org.apache.velocity.runtime.directive.Evaluate
2019-11-19 15:27:38,596 - Loaded System Directive: org.apache.velocity.runtime.directive.Literal
2019-11-19 15:27:38,597 - Loaded System Directive: org.apache.velocity.runtime.directive.Macro
2019-11-19 15:27:38,599 - Loaded System Directive: org.apache.velocity.runtime.directive.Parse
2019-11-19 15:27:38,601 - Loaded System Directive: org.apache.velocity.runtime.directive.Include
2019-11-19 15:27:38,602 - Loaded System Directive: org.apache.velocity.runtime.directive.Foreach
2019-11-19 15:27:38,632 - Created '20' parsers.
2019-11-19 15:27:38,638 - Velocimacro : "velocimacro.library" is not set.  Trying default library: VM_global_library.vm
2019-11-19 15:27:38,638 - Velocimacro : Default library not found.
2019-11-19 15:27:38,638 - Velocimacro : allowInline = true : VMs can be defined inline in templates
2019-11-19 15:27:38,638 - Velocimacro : allowInlineToOverride = false : VMs defined inline may NOT replace previous VM definitions
2019-11-19 15:27:38,638 - Velocimacro : allowInlineLocal = false : VMs defined inline will be global in scope if allowed.
2019-11-19 15:27:38,638 - Velocimacro : autoload off : VM system will not automatically reload global library macros
2019-11-19 15:38:07,531 - Log4JLogChute initialized using file 'velocity.log'
2019-11-19 15:38:07,531 - Initializing Velocity, Calling init()...
2019-11-19 15:38:07,531 - Starting Apache Velocity v1.7 (compiled: 2010-11-19 12:14:37)
2019-11-19 15:38:07,532 - Default Properties File: org\apache\velocity\runtime\defaults\velocity.properties
2019-11-19 15:38:07,532 - Trying to use logger class org.apache.velocity.runtime.log.AvalonLogChute
2019-11-19 15:38:07,532 - Target log system for org.apache.velocity.runtime.log.AvalonLogChute is not available (java.lang.NoClassDefFoundError: org/apache/log/format/Formatter).  Falling back to next log system...
2019-11-19 15:38:07,532 - Trying to use logger class org.apache.velocity.runtime.log.Log4JLogChute
2019-11-19 15:38:07,532 - Using logger class org.apache.velocity.runtime.log.Log4JLogChute
2019-11-19 15:38:07,541 - ResourceLoader instantiated: org.apache.velocity.runtime.resource.loader.FileResourceLoader
2019-11-19 15:38:07,543 - Do unicode file recognition:  false
2019-11-19 15:38:07,543 - FileResourceLoader : adding path '.'
2019-11-19 15:38:07,566 - ResourceCache: initialized (class org.apache.velocity.runtime.resource.ResourceCacheImpl) with class java.util.Collections$SynchronizedMap cache map.
2019-11-19 15:38:07,568 - Loaded System Directive: org.apache.velocity.runtime.directive.Stop
2019-11-19 15:38:07,570 - Loaded System Directive: org.apache.velocity.runtime.directive.Define
2019-11-19 15:38:07,571 - Loaded System Directive: org.apache.velocity.runtime.directive.Break
2019-11-19 15:38:07,573 - Loaded System Directive: org.apache.velocity.runtime.directive.Evaluate
2019-11-19 15:38:07,574 - Loaded System Directive: org.apache.velocity.runtime.directive.Literal
2019-11-19 15:38:07,577 - Loaded System Directive: org.apache.velocity.runtime.directive.Macro
2019-11-19 15:38:07,579 - Loaded System Directive: org.apache.velocity.runtime.directive.Parse
2019-11-19 15:38:07,582 - Loaded System Directive: org.apache.velocity.runtime.directive.Include
2019-11-19 15:38:07,584 - Loaded System Directive: org.apache.velocity.runtime.directive.Foreach
2019-11-19 15:38:07,638 - Created '20' parsers.
2019-11-19 15:38:07,661 - Velocimacro : "velocimacro.library" is not set.  Trying default library: VM_global_library.vm
2019-11-19 15:38:07,662 - Velocimacro : Default library not found.
2019-11-19 15:38:07,662 - Velocimacro : allowInline = true : VMs can be defined inline in templates
2019-11-19 15:38:07,662 - Velocimacro : allowInlineToOverride = false : VMs defined inline may NOT replace previous VM definitions
2019-11-19 15:38:07,662 - Velocimacro : allowInlineLocal = false : VMs defined inline will be global in scope if allowed.
2019-11-19 15:38:07,662 - Velocimacro : autoload off : VM system will not automatically reload global library macros
2019-11-19 15:51:32,300 - Log4JLogChute initialized using file 'velocity.log'
2019-11-19 15:51:32,301 - Initializing Velocity, Calling init()...
2019-11-19 15:51:32,301 - Starting Apache Velocity v1.7 (compiled: 2010-11-19 12:14:37)
2019-11-19 15:51:32,301 - Default Properties File: org\apache\velocity\runtime\defaults\velocity.properties
2019-11-19 15:51:32,301 - Trying to use logger class org.apache.velocity.runtime.log.AvalonLogChute
2019-11-19 15:51:32,301 - Target log system for org.apache.velocity.runtime.log.AvalonLogChute is not available (java.lang.NoClassDefFoundError: org/apache/log/format/Formatter).  Falling back to next log system...
2019-11-19 15:51:32,301 - Trying to use logger class org.apache.velocity.runtime.log.Log4JLogChute
2019-11-19 15:51:32,301 - Using logger class org.apache.velocity.runtime.log.Log4JLogChute
2019-11-19 15:51:32,311 - ResourceLoader instantiated: org.apache.velocity.runtime.resource.loader.FileResourceLoader
2019-11-19 15:51:32,313 - Do unicode file recognition:  false
2019-11-19 15:51:32,313 - FileResourceLoader : adding path '.'
2019-11-19 15:51:32,328 - ResourceCache: initialized (class org.apache.velocity.runtime.resource.ResourceCacheImpl) with class java.util.Collections$SynchronizedMap cache map.
2019-11-19 15:51:32,331 - Loaded System Directive: org.apache.velocity.runtime.directive.Stop
2019-11-19 15:51:32,334 - Loaded System Directive: org.apache.velocity.runtime.directive.Define
2019-11-19 15:51:32,335 - Loaded System Directive: org.apache.velocity.runtime.directive.Break
2019-11-19 15:51:32,336 - Loaded System Directive: org.apache.velocity.runtime.directive.Evaluate
2019-11-19 15:51:32,337 - Loaded System Directive: org.apache.velocity.runtime.directive.Literal
2019-11-19 15:51:32,340 - Loaded System Directive: org.apache.velocity.runtime.directive.Macro
2019-11-19 15:51:32,342 - Loaded System Directive: org.apache.velocity.runtime.directive.Parse
2019-11-19 15:51:32,345 - Loaded System Directive: org.apache.velocity.runtime.directive.Include
2019-11-19 15:51:32,346 - Loaded System Directive: org.apache.velocity.runtime.directive.Foreach
2019-11-19 15:51:32,381 - Created '20' parsers.
2019-11-19 15:51:32,387 - Velocimacro : "velocimacro.library" is not set.  Trying default library: VM_global_library.vm
2019-11-19 15:51:32,387 - Velocimacro : Default library not found.
2019-11-19 15:51:32,387 - Velocimacro : allowInline = true : VMs can be defined inline in templates
2019-11-19 15:51:32,387 - Velocimacro : allowInlineToOverride = false : VMs defined inline may NOT replace previous VM definitions
2019-11-19 15:51:32,387 - Velocimacro : allowInlineLocal = false : VMs defined inline will be global in scope if allowed.
2019-11-19 15:51:32,387 - Velocimacro : autoload off : VM system will not automatically reload global library macros
2019-11-19 15:58:23,676 - Log4JLogChute initialized using file 'velocity.log'
2019-11-19 15:58:23,677 - Initializing Velocity, Calling init()...
2019-11-19 15:58:23,677 - Starting Apache Velocity v1.7 (compiled: 2010-11-19 12:14:37)
2019-11-19 15:58:23,677 - Default Properties File: org\apache\velocity\runtime\defaults\velocity.properties
2019-11-19 15:58:23,677 - Trying to use logger class org.apache.velocity.runtime.log.AvalonLogChute
2019-11-19 15:58:23,677 - Target log system for org.apache.velocity.runtime.log.AvalonLogChute is not available (java.lang.NoClassDefFoundError: org/apache/log/format/Formatter).  Falling back to next log system...
2019-11-19 15:58:23,677 - Trying to use logger class org.apache.velocity.runtime.log.Log4JLogChute
2019-11-19 15:58:23,677 - Using logger class org.apache.velocity.runtime.log.Log4JLogChute
2019-11-19 15:58:23,688 - ResourceLoader instantiated: org.apache.velocity.runtime.resource.loader.FileResourceLoader
2019-11-19 15:58:23,691 - Do unicode file recognition:  false
2019-11-19 15:58:23,691 - FileResourceLoader : adding path '.'
2019-11-19 15:58:23,715 - ResourceCache: initialized (class org.apache.velocity.runtime.resource.ResourceCacheImpl) with class java.util.Collections$SynchronizedMap cache map.
2019-11-19 15:58:23,718 - Loaded System Directive: org.apache.velocity.runtime.directive.Stop
2019-11-19 15:58:23,720 - Loaded System Directive: org.apache.velocity.runtime.directive.Define
2019-11-19 15:58:23,721 - Loaded System Directive: org.apache.velocity.runtime.directive.Break
2019-11-19 15:58:23,723 - Loaded System Directive: org.apache.velocity.runtime.directive.Evaluate
2019-11-19 15:58:23,724 - Loaded System Directive: org.apache.velocity.runtime.directive.Literal
2019-11-19 15:58:23,726 - Loaded System Directive: org.apache.velocity.runtime.directive.Macro
2019-11-19 15:58:23,729 - Loaded System Directive: org.apache.velocity.runtime.directive.Parse
2019-11-19 15:58:23,732 - Loaded System Directive: org.apache.velocity.runtime.directive.Include
2019-11-19 15:58:23,734 - Loaded System Directive: org.apache.velocity.runtime.directive.Foreach
2019-11-19 15:58:23,820 - Created '20' parsers.
2019-11-19 15:58:23,832 - Velocimacro : "velocimacro.library" is not set.  Trying default library: VM_global_library.vm
2019-11-19 15:58:23,832 - Velocimacro : Default library not found.
2019-11-19 15:58:23,833 - Velocimacro : allowInline = true : VMs can be defined inline in templates
2019-11-19 15:58:23,833 - Velocimacro : allowInlineToOverride = false : VMs defined inline may NOT replace previous VM definitions
2019-11-19 15:58:23,833 - Velocimacro : allowInlineLocal = false : VMs defined inline will be global in scope if allowed.
2019-11-19 15:58:23,833 - Velocimacro : autoload off : VM system will not automatically reload global library macros
2019-11-19 16:03:03,809 - Log4JLogChute initialized using file 'velocity.log'
2019-11-19 16:03:03,809 - Initializing Velocity, Calling init()...
2019-11-19 16:03:03,809 - Starting Apache Velocity v1.7 (compiled: 2010-11-19 12:14:37)
2019-11-19 16:03:03,809 - Default Properties File: org\apache\velocity\runtime\defaults\velocity.properties
2019-11-19 16:03:03,809 - Trying to use logger class org.apache.velocity.runtime.log.AvalonLogChute
2019-11-19 16:03:03,809 - Target log system for org.apache.velocity.runtime.log.AvalonLogChute is not available (java.lang.NoClassDefFoundError: org/apache/log/format/Formatter).  Falling back to next log system...
2019-11-19 16:03:03,810 - Trying to use logger class org.apache.velocity.runtime.log.Log4JLogChute
2019-11-19 16:03:03,810 - Using logger class org.apache.velocity.runtime.log.Log4JLogChute
2019-11-19 16:03:03,816 - ResourceLoader instantiated: org.apache.velocity.runtime.resource.loader.FileResourceLoader
2019-11-19 16:03:03,817 - Do unicode file recognition:  false
2019-11-19 16:03:03,817 - FileResourceLoader : adding path '.'
2019-11-19 16:03:03,859 - ResourceCache: initialized (class org.apache.velocity.runtime.resource.ResourceCacheImpl) with class java.util.Collections$SynchronizedMap cache map.
2019-11-19 16:03:03,862 - Loaded System Directive: org.apache.velocity.runtime.directive.Stop
2019-11-19 16:03:03,863 - Loaded System Directive: org.apache.velocity.runtime.directive.Define
2019-11-19 16:03:03,864 - Loaded System Directive: org.apache.velocity.runtime.directive.Break
2019-11-19 16:03:03,864 - Loaded System Directive: org.apache.velocity.runtime.directive.Evaluate
2019-11-19 16:03:03,865 - Loaded System Directive: org.apache.velocity.runtime.directive.Literal
2019-11-19 16:03:03,866 - Loaded System Directive: org.apache.velocity.runtime.directive.Macro
2019-11-19 16:03:03,867 - Loaded System Directive: org.apache.velocity.runtime.directive.Parse
2019-11-19 16:03:03,868 - Loaded System Directive: org.apache.velocity.runtime.directive.Include
2019-11-19 16:03:03,869 - Loaded System Directive: org.apache.velocity.runtime.directive.Foreach
2019-11-19 16:03:03,904 - Created '20' parsers.
2019-11-19 16:03:03,911 - Velocimacro : "velocimacro.library" is not set.  Trying default library: VM_global_library.vm
2019-11-19 16:03:03,911 - Velocimacro : Default library not found.
2019-11-19 16:03:03,911 - Velocimacro : allowInline = true : VMs can be defined inline in templates
2019-11-19 16:03:03,911 - Velocimacro : allowInlineToOverride = false : VMs defined inline may NOT replace previous VM definitions
2019-11-19 16:03:03,911 - Velocimacro : allowInlineLocal = false : VMs defined inline will be global in scope if allowed.
2019-11-19 16:03:03,911 - Velocimacro : autoload off : VM system will not automatically reload global library macros
2019-11-19 16:09:47,174 - Log4JLogChute initialized using file 'velocity.log'
2019-11-19 16:09:47,175 - Initializing Velocity, Calling init()...
2019-11-19 16:09:47,175 - Starting Apache Velocity v1.7 (compiled: 2010-11-19 12:14:37)
2019-11-19 16:09:47,175 - Default Properties File: org\apache\velocity\runtime\defaults\velocity.properties
2019-11-19 16:09:47,176 - Trying to use logger class org.apache.velocity.runtime.log.AvalonLogChute
2019-11-19 16:09:47,176 - Target log system for org.apache.velocity.runtime.log.AvalonLogChute is not available (java.lang.NoClassDefFoundError: org/apache/log/format/Formatter).  Falling back to next log system...
2019-11-19 16:09:47,176 - Trying to use logger class org.apache.velocity.runtime.log.Log4JLogChute
2019-11-19 16:09:47,176 - Using logger class org.apache.velocity.runtime.log.Log4JLogChute
2019-11-19 16:09:47,183 - ResourceLoader instantiated: org.apache.velocity.runtime.resource.loader.FileResourceLoader
2019-11-19 16:09:47,187 - Do unicode file recognition:  false
2019-11-19 16:09:47,187 - FileResourceLoader : adding path '.'
2019-11-19 16:09:47,215 - ResourceCache: initialized (class org.apache.velocity.runtime.resource.ResourceCacheImpl) with class java.util.Collections$SynchronizedMap cache map.
2019-11-19 16:09:47,217 - Loaded System Directive: org.apache.velocity.runtime.directive.Stop
2019-11-19 16:09:47,219 - Loaded System Directive: org.apache.velocity.runtime.directive.Define
2019-11-19 16:09:47,219 - Loaded System Directive: org.apache.velocity.runtime.directive.Break
2019-11-19 16:09:47,221 - Loaded System Directive: org.apache.velocity.runtime.directive.Evaluate
2019-11-19 16:09:47,222 - Loaded System Directive: org.apache.velocity.runtime.directive.Literal
2019-11-19 16:09:47,223 - Loaded System Directive: org.apache.velocity.runtime.directive.Macro
2019-11-19 16:09:47,224 - Loaded System Directive: org.apache.velocity.runtime.directive.Parse
2019-11-19 16:09:47,225 - Loaded System Directive: org.apache.velocity.runtime.directive.Include
2019-11-19 16:09:47,226 - Loaded System Directive: org.apache.velocity.runtime.directive.Foreach
2019-11-19 16:09:47,256 - Created '20' parsers.
2019-11-19 16:09:47,262 - Velocimacro : "velocimacro.library" is not set.  Trying default library: VM_global_library.vm
2019-11-19 16:09:47,262 - Velocimacro : Default library not found.
2019-11-19 16:09:47,262 - Velocimacro : allowInline = true : VMs can be defined inline in templates
2019-11-19 16:09:47,262 - Velocimacro : allowInlineToOverride = false : VMs defined inline may NOT replace previous VM definitions
2019-11-19 16:09:47,262 - Velocimacro : allowInlineLocal = false : VMs defined inline will be global in scope if allowed.
2019-11-19 16:09:47,262 - Velocimacro : autoload off : VM system will not automatically reload global library macros
2019-11-19 16:11:44,491 - Log4JLogChute initialized using file 'velocity.log'
2019-11-19 16:11:44,493 - Initializing Velocity, Calling init()...
2019-11-19 16:11:44,493 - Starting Apache Velocity v1.7 (compiled: 2010-11-19 12:14:37)
2019-11-19 16:11:44,493 - Default Properties File: org\apache\velocity\runtime\defaults\velocity.properties
2019-11-19 16:11:44,494 - Trying to use logger class org.apache.velocity.runtime.log.AvalonLogChute
2019-11-19 16:11:44,494 - Target log system for org.apache.velocity.runtime.log.AvalonLogChute is not available (java.lang.NoClassDefFoundError: org/apache/log/format/Formatter).  Falling back to next log system...
2019-11-19 16:11:44,494 - Trying to use logger class org.apache.velocity.runtime.log.Log4JLogChute
2019-11-19 16:11:44,494 - Using logger class org.apache.velocity.runtime.log.Log4JLogChute
2019-11-19 16:11:44,502 - ResourceLoader instantiated: org.apache.velocity.runtime.resource.loader.FileResourceLoader
2019-11-19 16:11:44,504 - Do unicode file recognition:  false
2019-11-19 16:11:44,504 - FileResourceLoader : adding path '.'
2019-11-19 16:11:44,532 - ResourceCache: initialized (class org.apache.velocity.runtime.resource.ResourceCacheImpl) with class java.util.Collections$SynchronizedMap cache map.
2019-11-19 16:11:44,533 - Loaded System Directive: org.apache.velocity.runtime.directive.Stop
2019-11-19 16:11:44,534 - Loaded System Directive: org.apache.velocity.runtime.directive.Define
2019-11-19 16:11:44,535 - Loaded System Directive: org.apache.velocity.runtime.directive.Break
2019-11-19 16:11:44,536 - Loaded System Directive: org.apache.velocity.runtime.directive.Evaluate
2019-11-19 16:11:44,537 - Loaded System Directive: org.apache.velocity.runtime.directive.Literal
2019-11-19 16:11:44,538 - Loaded System Directive: org.apache.velocity.runtime.directive.Macro
2019-11-19 16:11:44,539 - Loaded System Directive: org.apache.velocity.runtime.directive.Parse
2019-11-19 16:11:44,541 - Loaded System Directive: org.apache.velocity.runtime.directive.Include
2019-11-19 16:11:44,542 - Loaded System Directive: org.apache.velocity.runtime.directive.Foreach
2019-11-19 16:11:44,577 - Created '20' parsers.
2019-11-19 16:11:44,586 - Velocimacro : "velocimacro.library" is not set.  Trying default library: VM_global_library.vm
2019-11-19 16:11:44,586 - Velocimacro : Default library not found.
2019-11-19 16:11:44,586 - Velocimacro : allowInline = true : VMs can be defined inline in templates
2019-11-19 16:11:44,586 - Velocimacro : allowInlineToOverride = false : VMs defined inline may NOT replace previous VM definitions
2019-11-19 16:11:44,586 - Velocimacro : allowInlineLocal = false : VMs defined inline will be global in scope if allowed.
2019-11-19 16:11:44,586 - Velocimacro : autoload off : VM system will not automatically reload global library macros
2019-11-19 16:13:38,693 - Log4JLogChute initialized using file 'velocity.log'
2019-11-19 16:13:38,694 - Initializing Velocity, Calling init()...
2019-11-19 16:13:38,694 - Starting Apache Velocity v1.7 (compiled: 2010-11-19 12:14:37)
2019-11-19 16:13:38,694 - Default Properties File: org\apache\velocity\runtime\defaults\velocity.properties
2019-11-19 16:13:38,694 - Trying to use logger class org.apache.velocity.runtime.log.AvalonLogChute
2019-11-19 16:13:38,694 - Target log system for org.apache.velocity.runtime.log.AvalonLogChute is not available (java.lang.NoClassDefFoundError: org/apache/log/format/Formatter).  Falling back to next log system...
2019-11-19 16:13:38,694 - Trying to use logger class org.apache.velocity.runtime.log.Log4JLogChute
2019-11-19 16:13:38,694 - Using logger class org.apache.velocity.runtime.log.Log4JLogChute
2019-11-19 16:13:38,703 - ResourceLoader instantiated: org.apache.velocity.runtime.resource.loader.FileResourceLoader
2019-11-19 16:13:38,706 - Do unicode file recognition:  false
2019-11-19 16:13:38,706 - FileResourceLoader : adding path '.'
2019-11-19 16:13:38,733 - ResourceCache: initialized (class org.apache.velocity.runtime.resource.ResourceCacheImpl) with class java.util.Collections$SynchronizedMap cache map.
2019-11-19 16:13:38,735 - Loaded System Directive: org.apache.velocity.runtime.directive.Stop
2019-11-19 16:13:38,737 - Loaded System Directive: org.apache.velocity.runtime.directive.Define
2019-11-19 16:13:38,737 - Loaded System Directive: org.apache.velocity.runtime.directive.Break
2019-11-19 16:13:38,738 - Loaded System Directive: org.apache.velocity.runtime.directive.Evaluate
2019-11-19 16:13:38,739 - Loaded System Directive: org.apache.velocity.runtime.directive.Literal
2019-11-19 16:13:38,740 - Loaded System Directive: org.apache.velocity.runtime.directive.Macro
2019-11-19 16:13:38,741 - Loaded System Directive: org.apache.velocity.runtime.directive.Parse
2019-11-19 16:13:38,742 - Loaded System Directive: org.apache.velocity.runtime.directive.Include
2019-11-19 16:13:38,743 - Loaded System Directive: org.apache.velocity.runtime.directive.Foreach
2019-11-19 16:13:38,775 - Created '20' parsers.
2019-11-19 16:13:38,783 - Velocimacro : "velocimacro.library" is not set.  Trying default library: VM_global_library.vm
2019-11-19 16:13:38,783 - Velocimacro : Default library not found.
2019-11-19 16:13:38,783 - Velocimacro : allowInline = true : VMs can be defined inline in templates
2019-11-19 16:13:38,783 - Velocimacro : allowInlineToOverride = false : VMs defined inline may NOT replace previous VM definitions
2019-11-19 16:13:38,784 - Velocimacro : allowInlineLocal = false : VMs defined inline will be global in scope if allowed.
2019-11-19 16:13:38,784 - Velocimacro : autoload off : VM system will not automatically reload global library macros
2019-11-19 16:15:41,622 - Log4JLogChute initialized using file 'velocity.log'
2019-11-19 16:15:41,623 - Initializing Velocity, Calling init()...
2019-11-19 16:15:41,623 - Starting Apache Velocity v1.7 (compiled: 2010-11-19 12:14:37)
2019-11-19 16:15:41,623 - Default Properties File: org\apache\velocity\runtime\defaults\velocity.properties
2019-11-19 16:15:41,623 - Trying to use logger class org.apache.velocity.runtime.log.AvalonLogChute
2019-11-19 16:15:41,624 - Target log system for org.apache.velocity.runtime.log.AvalonLogChute is not available (java.lang.NoClassDefFoundError: org/apache/log/format/Formatter).  Falling back to next log system...
2019-11-19 16:15:41,624 - Trying to use logger class org.apache.velocity.runtime.log.Log4JLogChute
2019-11-19 16:15:41,624 - Using logger class org.apache.velocity.runtime.log.Log4JLogChute
2019-11-19 16:15:41,631 - ResourceLoader instantiated: org.apache.velocity.runtime.resource.loader.FileResourceLoader
2019-11-19 16:15:41,633 - Do unicode file recognition:  false
2019-11-19 16:15:41,633 - FileResourceLoader : adding path '.'
2019-11-19 16:15:41,668 - ResourceCache: initialized (class org.apache.velocity.runtime.resource.ResourceCacheImpl) with class java.util.Collections$SynchronizedMap cache map.
2019-11-19 16:15:41,670 - Loaded System Directive: org.apache.velocity.runtime.directive.Stop
2019-11-19 16:15:41,671 - Loaded System Directive: org.apache.velocity.runtime.directive.Define
2019-11-19 16:15:41,672 - Loaded System Directive: org.apache.velocity.runtime.directive.Break
2019-11-19 16:15:41,672 - Loaded System Directive: org.apache.velocity.runtime.directive.Evaluate
2019-11-19 16:15:41,673 - Loaded System Directive: org.apache.velocity.runtime.directive.Literal
2019-11-19 16:15:41,674 - Loaded System Directive: org.apache.velocity.runtime.directive.Macro
2019-11-19 16:15:41,676 - Loaded System Directive: org.apache.velocity.runtime.directive.Parse
2019-11-19 16:15:41,677 - Loaded System Directive: org.apache.velocity.runtime.directive.Include
2019-11-19 16:15:41,678 - Loaded System Directive: org.apache.velocity.runtime.directive.Foreach
2019-11-19 16:15:41,706 - Created '20' parsers.
2019-11-19 16:15:41,712 - Velocimacro : "velocimacro.library" is not set.  Trying default library: VM_global_library.vm
2019-11-19 16:15:41,712 - Velocimacro : Default library not found.
2019-11-19 16:15:41,712 - Velocimacro : allowInline = true : VMs can be defined inline in templates
2019-11-19 16:15:41,712 - Velocimacro : allowInlineToOverride = false : VMs defined inline may NOT replace previous VM definitions
2019-11-19 16:15:41,712 - Velocimacro : allowInlineLocal = false : VMs defined inline will be global in scope if allowed.
2019-11-19 16:15:41,712 - Velocimacro : autoload off : VM system will not automatically reload global library macros
2019-11-19 16:33:36,558 - Log4JLogChute initialized using file 'velocity.log'
2019-11-19 16:33:36,559 - Initializing Velocity, Calling init()...
2019-11-19 16:33:36,559 - Starting Apache Velocity v1.7 (compiled: 2010-11-19 12:14:37)
2019-11-19 16:33:36,559 - Default Properties File: org\apache\velocity\runtime\defaults\velocity.properties
2019-11-19 16:33:36,559 - Trying to use logger class org.apache.velocity.runtime.log.AvalonLogChute
2019-11-19 16:33:36,559 - Target log system for org.apache.velocity.runtime.log.AvalonLogChute is not available (java.lang.NoClassDefFoundError: org/apache/log/format/Formatter).  Falling back to next log system...
2019-11-19 16:33:36,559 - Trying to use logger class org.apache.velocity.runtime.log.Log4JLogChute
2019-11-19 16:33:36,559 - Using logger class org.apache.velocity.runtime.log.Log4JLogChute
2019-11-19 16:33:36,567 - ResourceLoader instantiated: org.apache.velocity.runtime.resource.loader.FileResourceLoader
2019-11-19 16:33:36,569 - Do unicode file recognition:  false
2019-11-19 16:33:36,569 - FileResourceLoader : adding path '.'
2019-11-19 16:33:36,601 - ResourceCache: initialized (class org.apache.velocity.runtime.resource.ResourceCacheImpl) with class java.util.Collections$SynchronizedMap cache map.
2019-11-19 16:33:36,603 - Loaded System Directive: org.apache.velocity.runtime.directive.Stop
2019-11-19 16:33:36,604 - Loaded System Directive: org.apache.velocity.runtime.directive.Define
2019-11-19 16:33:36,605 - Loaded System Directive: org.apache.velocity.runtime.directive.Break
2019-11-19 16:33:36,606 - Loaded System Directive: org.apache.velocity.runtime.directive.Evaluate
2019-11-19 16:33:36,607 - Loaded System Directive: org.apache.velocity.runtime.directive.Literal
2019-11-19 16:33:36,608 - Loaded System Directive: org.apache.velocity.runtime.directive.Macro
2019-11-19 16:33:36,609 - Loaded System Directive: org.apache.velocity.runtime.directive.Parse
2019-11-19 16:33:36,610 - Loaded System Directive: org.apache.velocity.runtime.directive.Include
2019-11-19 16:33:36,611 - Loaded System Directive: org.apache.velocity.runtime.directive.Foreach
2019-11-19 16:33:36,640 - Created '20' parsers.
2019-11-19 16:33:36,646 - Velocimacro : "velocimacro.library" is not set.  Trying default library: VM_global_library.vm
2019-11-19 16:33:36,646 - Velocimacro : Default library not found.
2019-11-19 16:33:36,647 - Velocimacro : allowInline = true : VMs can be defined inline in templates
2019-11-19 16:33:36,647 - Velocimacro : allowInlineToOverride = false : VMs defined inline may NOT replace previous VM definitions
2019-11-19 16:33:36,647 - Velocimacro : allowInlineLocal = false : VMs defined inline will be global in scope if allowed.
2019-11-19 16:33:36,647 - Velocimacro : autoload off : VM system will not automatically reload global library macros
2019-11-19 16:36:36,553 - Log4JLogChute initialized using file 'velocity.log'
2019-11-19 16:36:36,556 - Initializing Velocity, Calling init()...
2019-11-19 16:36:36,556 - Starting Apache Velocity v1.7 (compiled: 2010-11-19 12:14:37)
2019-11-19 16:36:36,556 - Default Properties File: org\apache\velocity\runtime\defaults\velocity.properties
2019-11-19 16:36:36,556 - Trying to use logger class org.apache.velocity.runtime.log.AvalonLogChute
2019-11-19 16:36:36,556 - Target log system for org.apache.velocity.runtime.log.AvalonLogChute is not available (java.lang.NoClassDefFoundError: org/apache/log/format/Formatter).  Falling back to next log system...
2019-11-19 16:36:36,556 - Trying to use logger class org.apache.velocity.runtime.log.Log4JLogChute
2019-11-19 16:36:36,557 - Using logger class org.apache.velocity.runtime.log.Log4JLogChute
2019-11-19 16:36:36,562 - ResourceLoader instantiated: org.apache.velocity.runtime.resource.loader.FileResourceLoader
2019-11-19 16:36:36,564 - Do unicode file recognition:  false
2019-11-19 16:36:36,565 - FileResourceLoader : adding path '.'
2019-11-19 16:36:36,602 - ResourceCache: initialized (class org.apache.velocity.runtime.resource.ResourceCacheImpl) with class java.util.Collections$SynchronizedMap cache map.
2019-11-19 16:36:36,604 - Loaded System Directive: org.apache.velocity.runtime.directive.Stop
2019-11-19 16:36:36,606 - Loaded System Directive: org.apache.velocity.runtime.directive.Define
2019-11-19 16:36:36,607 - Loaded System Directive: org.apache.velocity.runtime.directive.Break
2019-11-19 16:36:36,608 - Loaded System Directive: org.apache.velocity.runtime.directive.Evaluate
2019-11-19 16:36:36,608 - Loaded System Directive: org.apache.velocity.runtime.directive.Literal
2019-11-19 16:36:36,609 - Loaded System Directive: org.apache.velocity.runtime.directive.Macro
2019-11-19 16:36:36,610 - Loaded System Directive: org.apache.velocity.runtime.directive.Parse
2019-11-19 16:36:36,611 - Loaded System Directive: org.apache.velocity.runtime.directive.Include
2019-11-19 16:36:36,613 - Loaded System Directive: org.apache.velocity.runtime.directive.Foreach
2019-11-19 16:36:36,643 - Created '20' parsers.
2019-11-19 16:36:36,650 - Velocimacro : "velocimacro.library" is not set.  Trying default library: VM_global_library.vm
2019-11-19 16:36:36,650 - Velocimacro : Default library not found.
2019-11-19 16:36:36,650 - Velocimacro : allowInline = true : VMs can be defined inline in templates
2019-11-19 16:36:36,650 - Velocimacro : allowInlineToOverride = false : VMs defined inline may NOT replace previous VM definitions
2019-11-19 16:36:36,650 - Velocimacro : allowInlineLocal = false : VMs defined inline will be global in scope if allowed.
2019-11-19 16:36:36,650 - Velocimacro : autoload off : VM system will not automatically reload global library macros
2019-11-19 16:45:34,020 - Log4JLogChute initialized using file 'velocity.log'
2019-11-19 16:45:34,021 - Initializing Velocity, Calling init()...
2019-11-19 16:45:34,021 - Starting Apache Velocity v1.7 (compiled: 2010-11-19 12:14:37)
2019-11-19 16:45:34,021 - Default Properties File: org\apache\velocity\runtime\defaults\velocity.properties
2019-11-19 16:45:34,021 - Trying to use logger class org.apache.velocity.runtime.log.AvalonLogChute
2019-11-19 16:45:34,021 - Target log system for org.apache.velocity.runtime.log.AvalonLogChute is not available (java.lang.NoClassDefFoundError: org/apache/log/format/Formatter).  Falling back to next log system...
2019-11-19 16:45:34,021 - Trying to use logger class org.apache.velocity.runtime.log.Log4JLogChute
2019-11-19 16:45:34,021 - Using logger class org.apache.velocity.runtime.log.Log4JLogChute
2019-11-19 16:45:34,028 - ResourceLoader instantiated: org.apache.velocity.runtime.resource.loader.FileResourceLoader
2019-11-19 16:45:34,030 - Do unicode file recognition:  false
2019-11-19 16:45:34,030 - FileResourceLoader : adding path '.'
2019-11-19 16:45:34,064 - ResourceCache: initialized (class org.apache.velocity.runtime.resource.ResourceCacheImpl) with class java.util.Collections$SynchronizedMap cache map.
2019-11-19 16:45:34,066 - Loaded System Directive: org.apache.velocity.runtime.directive.Stop
2019-11-19 16:45:34,067 - Loaded System Directive: org.apache.velocity.runtime.directive.Define
2019-11-19 16:45:34,068 - Loaded System Directive: org.apache.velocity.runtime.directive.Break
2019-11-19 16:45:34,069 - Loaded System Directive: org.apache.velocity.runtime.directive.Evaluate
2019-11-19 16:45:34,070 - Loaded System Directive: org.apache.velocity.runtime.directive.Literal
2019-11-19 16:45:34,071 - Loaded System Directive: org.apache.velocity.runtime.directive.Macro
2019-11-19 16:45:34,072 - Loaded System Directive: org.apache.velocity.runtime.directive.Parse
2019-11-19 16:45:34,073 - Loaded System Directive: org.apache.velocity.runtime.directive.Include
2019-11-19 16:45:34,074 - Loaded System Directive: org.apache.velocity.runtime.directive.Foreach
2019-11-19 16:45:34,106 - Created '20' parsers.
2019-11-19 16:45:34,113 - Velocimacro : "velocimacro.library" is not set.  Trying default library: VM_global_library.vm
2019-11-19 16:45:34,113 - Velocimacro : Default library not found.
2019-11-19 16:45:34,113 - Velocimacro : allowInline = true : VMs can be defined inline in templates
2019-11-19 16:45:34,113 - Velocimacro : allowInlineToOverride = false : VMs defined inline may NOT replace previous VM definitions
2019-11-19 16:45:34,113 - Velocimacro : allowInlineLocal = false : VMs defined inline will be global in scope if allowed.
2019-11-19 16:45:34,113 - Velocimacro : autoload off : VM system will not automatically reload global library macros
2019-11-19 16:52:33,753 - Log4JLogChute initialized using file 'velocity.log'
2019-11-19 16:52:33,754 - Initializing Velocity, Calling init()...
2019-11-19 16:52:33,754 - Starting Apache Velocity v1.7 (compiled: 2010-11-19 12:14:37)
2019-11-19 16:52:33,754 - Default Properties File: org\apache\velocity\runtime\defaults\velocity.properties
2019-11-19 16:52:33,754 - Trying to use logger class org.apache.velocity.runtime.log.AvalonLogChute
2019-11-19 16:52:33,754 - Target log system for org.apache.velocity.runtime.log.AvalonLogChute is not available (java.lang.NoClassDefFoundError: org/apache/log/format/Formatter).  Falling back to next log system...
2019-11-19 16:52:33,754 - Trying to use logger class org.apache.velocity.runtime.log.Log4JLogChute
2019-11-19 16:52:33,754 - Using logger class org.apache.velocity.runtime.log.Log4JLogChute
2019-11-19 16:52:33,761 - ResourceLoader instantiated: org.apache.velocity.runtime.resource.loader.FileResourceLoader
2019-11-19 16:52:33,763 - Do unicode file recognition:  false
2019-11-19 16:52:33,763 - FileResourceLoader : adding path '.'
2019-11-19 16:52:33,794 - ResourceCache: initialized (class org.apache.velocity.runtime.resource.ResourceCacheImpl) with class java.util.Collections$SynchronizedMap cache map.
2019-11-19 16:52:33,795 - Loaded System Directive: org.apache.velocity.runtime.directive.Stop
2019-11-19 16:52:33,796 - Loaded System Directive: org.apache.velocity.runtime.directive.Define
2019-11-19 16:52:33,797 - Loaded System Directive: org.apache.velocity.runtime.directive.Break
2019-11-19 16:52:33,799 - Loaded System Directive: org.apache.velocity.runtime.directive.Evaluate
2019-11-19 16:52:33,799 - Loaded System Directive: org.apache.velocity.runtime.directive.Literal
2019-11-19 16:52:33,800 - Loaded System Directive: org.apache.velocity.runtime.directive.Macro
2019-11-19 16:52:33,801 - Loaded System Directive: org.apache.velocity.runtime.directive.Parse
2019-11-19 16:52:33,802 - Loaded System Directive: org.apache.velocity.runtime.directive.Include
2019-11-19 16:52:33,803 - Loaded System Directive: org.apache.velocity.runtime.directive.Foreach
2019-11-19 16:52:33,831 - Created '20' parsers.
2019-11-19 16:52:33,837 - Velocimacro : "velocimacro.library" is not set.  Trying default library: VM_global_library.vm
2019-11-19 16:52:33,837 - Velocimacro : Default library not found.
2019-11-19 16:52:33,837 - Velocimacro : allowInline = true : VMs can be defined inline in templates
2019-11-19 16:52:33,837 - Velocimacro : allowInlineToOverride = false : VMs defined inline may NOT replace previous VM definitions
2019-11-19 16:52:33,837 - Velocimacro : allowInlineLocal = false : VMs defined inline will be global in scope if allowed.
2019-11-19 16:52:33,837 - Velocimacro : autoload off : VM system will not automatically reload global library macros
2019-11-19 16:55:23,190 - Log4JLogChute initialized using file 'velocity.log'
2019-11-19 16:55:23,192 - Initializing Velocity, Calling init()...
2019-11-19 16:55:23,192 - Starting Apache Velocity v1.7 (compiled: 2010-11-19 12:14:37)
2019-11-19 16:55:23,192 - Default Properties File: org\apache\velocity\runtime\defaults\velocity.properties
2019-11-19 16:55:23,192 - Trying to use logger class org.apache.velocity.runtime.log.AvalonLogChute
2019-11-19 16:55:23,192 - Target log system for org.apache.velocity.runtime.log.AvalonLogChute is not available (java.lang.NoClassDefFoundError: org/apache/log/format/Formatter).  Falling back to next log system...
2019-11-19 16:55:23,192 - Trying to use logger class org.apache.velocity.runtime.log.Log4JLogChute
2019-11-19 16:55:23,192 - Using logger class org.apache.velocity.runtime.log.Log4JLogChute
2019-11-19 16:55:23,199 - ResourceLoader instantiated: org.apache.velocity.runtime.resource.loader.FileResourceLoader
2019-11-19 16:55:23,200 - Do unicode file recognition:  false
2019-11-19 16:55:23,200 - FileResourceLoader : adding path '.'
2019-11-19 16:55:23,232 - ResourceCache: initialized (class org.apache.velocity.runtime.resource.ResourceCacheImpl) with class java.util.Collections$SynchronizedMap cache map.
2019-11-19 16:55:23,234 - Loaded System Directive: org.apache.velocity.runtime.directive.Stop
2019-11-19 16:55:23,235 - Loaded System Directive: org.apache.velocity.runtime.directive.Define
2019-11-19 16:55:23,236 - Loaded System Directive: org.apache.velocity.runtime.directive.Break
2019-11-19 16:55:23,237 - Loaded System Directive: org.apache.velocity.runtime.directive.Evaluate
2019-11-19 16:55:23,237 - Loaded System Directive: org.apache.velocity.runtime.directive.Literal
2019-11-19 16:55:23,239 - Loaded System Directive: org.apache.velocity.runtime.directive.Macro
2019-11-19 16:55:23,240 - Loaded System Directive: org.apache.velocity.runtime.directive.Parse
2019-11-19 16:55:23,242 - Loaded System Directive: org.apache.velocity.runtime.directive.Include
2019-11-19 16:55:23,243 - Loaded System Directive: org.apache.velocity.runtime.directive.Foreach
2019-11-19 16:55:23,271 - Created '20' parsers.
2019-11-19 16:55:23,278 - Velocimacro : "velocimacro.library" is not set.  Trying default library: VM_global_library.vm
2019-11-19 16:55:23,278 - Velocimacro : Default library not found.
2019-11-19 16:55:23,278 - Velocimacro : allowInline = true : VMs can be defined inline in templates
2019-11-19 16:55:23,278 - Velocimacro : allowInlineToOverride = false : VMs defined inline may NOT replace previous VM definitions
2019-11-19 16:55:23,278 - Velocimacro : allowInlineLocal = false : VMs defined inline will be global in scope if allowed.
2019-11-19 16:55:23,279 - Velocimacro : autoload off : VM system will not automatically reload global library macros
2019-11-19 17:32:58,745 - Log4JLogChute initialized using file 'velocity.log'
2019-11-19 17:32:58,746 - Initializing Velocity, Calling init()...
2019-11-19 17:32:58,746 - Starting Apache Velocity v1.7 (compiled: 2010-11-19 12:14:37)
2019-11-19 17:32:58,746 - Default Properties File: org\apache\velocity\runtime\defaults\velocity.properties
2019-11-19 17:32:58,746 - Trying to use logger class org.apache.velocity.runtime.log.AvalonLogChute
2019-11-19 17:32:58,746 - Target log system for org.apache.velocity.runtime.log.AvalonLogChute is not available (java.lang.NoClassDefFoundError: org/apache/log/format/Formatter).  Falling back to next log system...
2019-11-19 17:32:58,746 - Trying to use logger class org.apache.velocity.runtime.log.Log4JLogChute
2019-11-19 17:32:58,746 - Using logger class org.apache.velocity.runtime.log.Log4JLogChute
2019-11-19 17:32:58,753 - ResourceLoader instantiated: org.apache.velocity.runtime.resource.loader.FileResourceLoader
2019-11-19 17:32:58,754 - Do unicode file recognition:  false
2019-11-19 17:32:58,754 - FileResourceLoader : adding path '.'
2019-11-19 17:32:58,784 - ResourceCache: initialized (class org.apache.velocity.runtime.resource.ResourceCacheImpl) with class java.util.Collections$SynchronizedMap cache map.
2019-11-19 17:32:58,787 - Loaded System Directive: org.apache.velocity.runtime.directive.Stop
2019-11-19 17:32:58,788 - Loaded System Directive: org.apache.velocity.runtime.directive.Define
2019-11-19 17:32:58,789 - Loaded System Directive: org.apache.velocity.runtime.directive.Break
2019-11-19 17:32:58,790 - Loaded System Directive: org.apache.velocity.runtime.directive.Evaluate
2019-11-19 17:32:58,790 - Loaded System Directive: org.apache.velocity.runtime.directive.Literal
2019-11-19 17:32:58,792 - Loaded System Directive: org.apache.velocity.runtime.directive.Macro
2019-11-19 17:32:58,793 - Loaded System Directive: org.apache.velocity.runtime.directive.Parse
2019-11-19 17:32:58,795 - Loaded System Directive: org.apache.velocity.runtime.directive.Include
2019-11-19 17:32:58,796 - Loaded System Directive: org.apache.velocity.runtime.directive.Foreach
2019-11-19 17:32:58,830 - Created '20' parsers.
2019-11-19 17:32:58,837 - Velocimacro : "velocimacro.library" is not set.  Trying default library: VM_global_library.vm
2019-11-19 17:32:58,837 - Velocimacro : Default library not found.
2019-11-19 17:32:58,837 - Velocimacro : allowInline = true : VMs can be defined inline in templates
2019-11-19 17:32:58,838 - Velocimacro : allowInlineToOverride = false : VMs defined inline may NOT replace previous VM definitions
2019-11-19 17:32:58,838 - Velocimacro : allowInlineLocal = false : VMs defined inline will be global in scope if allowed.
2019-11-19 17:32:58,838 - Velocimacro : autoload off : VM system will not automatically reload global library macros
2019-11-20 16:12:37,028 - Log4JLogChute initialized using file 'velocity.log'
2019-11-20 16:12:37,029 - Initializing Velocity, Calling init()...
2019-11-20 16:12:37,030 - Starting Apache Velocity v1.7 (compiled: 2010-11-19 12:14:37)
2019-11-20 16:12:37,030 - Default Properties File: org\apache\velocity\runtime\defaults\velocity.properties
2019-11-20 16:12:37,030 - Trying to use logger class org.apache.velocity.runtime.log.AvalonLogChute
2019-11-20 16:12:37,030 - Target log system for org.apache.velocity.runtime.log.AvalonLogChute is not available (java.lang.NoClassDefFoundError: org/apache/log/format/Formatter).  Falling back to next log system...
2019-11-20 16:12:37,030 - Trying to use logger class org.apache.velocity.runtime.log.Log4JLogChute
2019-11-20 16:12:37,030 - Using logger class org.apache.velocity.runtime.log.Log4JLogChute
2019-11-20 16:12:37,037 - ResourceLoader instantiated: org.apache.velocity.runtime.resource.loader.FileResourceLoader
2019-11-20 16:12:37,039 - Do unicode file recognition:  false
2019-11-20 16:12:37,039 - FileResourceLoader : adding path '.'
2019-11-20 16:12:37,054 - ResourceCache: initialized (class org.apache.velocity.runtime.resource.ResourceCacheImpl) with class java.util.Collections$SynchronizedMap cache map.
2019-11-20 16:12:37,056 - Loaded System Directive: org.apache.velocity.runtime.directive.Stop
2019-11-20 16:12:37,058 - Loaded System Directive: org.apache.velocity.runtime.directive.Define
2019-11-20 16:12:37,059 - Loaded System Directive: org.apache.velocity.runtime.directive.Break
2019-11-20 16:12:37,060 - Loaded System Directive: org.apache.velocity.runtime.directive.Evaluate
2019-11-20 16:12:37,061 - Loaded System Directive: org.apache.velocity.runtime.directive.Literal
2019-11-20 16:12:37,062 - Loaded System Directive: org.apache.velocity.runtime.directive.Macro
2019-11-20 16:12:37,064 - Loaded System Directive: org.apache.velocity.runtime.directive.Parse
2019-11-20 16:12:37,067 - Loaded System Directive: org.apache.velocity.runtime.directive.Include
2019-11-20 16:12:37,068 - Loaded System Directive: org.apache.velocity.runtime.directive.Foreach
2019-11-20 16:12:37,121 - Created '20' parsers.
2019-11-20 16:12:37,130 - Velocimacro : "velocimacro.library" is not set.  Trying default library: VM_global_library.vm
2019-11-20 16:12:37,130 - Velocimacro : Default library not found.
2019-11-20 16:12:37,130 - Velocimacro : allowInline = true : VMs can be defined inline in templates
2019-11-20 16:12:37,130 - Velocimacro : allowInlineToOverride = false : VMs defined inline may NOT replace previous VM definitions
2019-11-20 16:12:37,130 - Velocimacro : allowInlineLocal = false : VMs defined inline will be global in scope if allowed.
2019-11-20 16:12:37,130 - Velocimacro : autoload off : VM system will not automatically reload global library macros
2019-11-20 16:13:42,260 - Log4JLogChute initialized using file 'velocity.log'
2019-11-20 16:13:42,260 - Initializing Velocity, Calling init()...
2019-11-20 16:13:42,260 - Starting Apache Velocity v1.7 (compiled: 2010-11-19 12:14:37)
2019-11-20 16:13:42,260 - Default Properties File: org\apache\velocity\runtime\defaults\velocity.properties
2019-11-20 16:13:42,261 - Trying to use logger class org.apache.velocity.runtime.log.AvalonLogChute
2019-11-20 16:13:42,261 - Target log system for org.apache.velocity.runtime.log.AvalonLogChute is not available (java.lang.NoClassDefFoundError: org/apache/log/format/Formatter).  Falling back to next log system...
2019-11-20 16:13:42,261 - Trying to use logger class org.apache.velocity.runtime.log.Log4JLogChute
2019-11-20 16:13:42,261 - Using logger class org.apache.velocity.runtime.log.Log4JLogChute
2019-11-20 16:13:42,265 - ResourceLoader instantiated: org.apache.velocity.runtime.resource.loader.FileResourceLoader
2019-11-20 16:13:42,266 - Do unicode file recognition:  false
2019-11-20 16:13:42,266 - FileResourceLoader : adding path '.'
2019-11-20 16:13:42,283 - ResourceCache: initialized (class org.apache.velocity.runtime.resource.ResourceCacheImpl) with class java.util.Collections$SynchronizedMap cache map.
2019-11-20 16:13:42,285 - Loaded System Directive: org.apache.velocity.runtime.directive.Stop
2019-11-20 16:13:42,286 - Loaded System Directive: org.apache.velocity.runtime.directive.Define
2019-11-20 16:13:42,286 - Loaded System Directive: org.apache.velocity.runtime.directive.Break
2019-11-20 16:13:42,287 - Loaded System Directive: org.apache.velocity.runtime.directive.Evaluate
2019-11-20 16:13:42,288 - Loaded System Directive: org.apache.velocity.runtime.directive.Literal
2019-11-20 16:13:42,289 - Loaded System Directive: org.apache.velocity.runtime.directive.Macro
2019-11-20 16:13:42,291 - Loaded System Directive: org.apache.velocity.runtime.directive.Parse
2019-11-20 16:13:42,292 - Loaded System Directive: org.apache.velocity.runtime.directive.Include
2019-11-20 16:13:42,293 - Loaded System Directive: org.apache.velocity.runtime.directive.Foreach
2019-11-20 16:13:42,322 - Created '20' parsers.
2019-11-20 16:13:42,329 - Velocimacro : "velocimacro.library" is not set.  Trying default library: VM_global_library.vm
2019-11-20 16:13:42,329 - Velocimacro : Default library not found.
2019-11-20 16:13:42,329 - Velocimacro : allowInline = true : VMs can be defined inline in templates
2019-11-20 16:13:42,329 - Velocimacro : allowInlineToOverride = false : VMs defined inline may NOT replace previous VM definitions
2019-11-20 16:13:42,329 - Velocimacro : allowInlineLocal = false : VMs defined inline will be global in scope if allowed.
2019-11-20 16:13:42,329 - Velocimacro : autoload off : VM system will not automatically reload global library macros
2019-11-20 16:15:49,241 - Log4JLogChute initialized using file 'velocity.log'
2019-11-20 16:15:49,241 - Initializing Velocity, Calling init()...
2019-11-20 16:15:49,241 - Starting Apache Velocity v1.7 (compiled: 2010-11-19 12:14:37)
2019-11-20 16:15:49,241 - Default Properties File: org\apache\velocity\runtime\defaults\velocity.properties
2019-11-20 16:15:49,241 - Trying to use logger class org.apache.velocity.runtime.log.AvalonLogChute
2019-11-20 16:15:49,242 - Target log system for org.apache.velocity.runtime.log.AvalonLogChute is not available (java.lang.NoClassDefFoundError: org/apache/log/format/Formatter).  Falling back to next log system...
2019-11-20 16:15:49,242 - Trying to use logger class org.apache.velocity.runtime.log.Log4JLogChute
2019-11-20 16:15:49,242 - Using logger class org.apache.velocity.runtime.log.Log4JLogChute
2019-11-20 16:15:49,246 - ResourceLoader instantiated: org.apache.velocity.runtime.resource.loader.FileResourceLoader
2019-11-20 16:15:49,247 - Do unicode file recognition:  false
2019-11-20 16:15:49,247 - FileResourceLoader : adding path '.'
2019-11-20 16:15:49,259 - ResourceCache: initialized (class org.apache.velocity.runtime.resource.ResourceCacheImpl) with class java.util.Collections$SynchronizedMap cache map.
2019-11-20 16:15:49,260 - Loaded System Directive: org.apache.velocity.runtime.directive.Stop
2019-11-20 16:15:49,261 - Loaded System Directive: org.apache.velocity.runtime.directive.Define
2019-11-20 16:15:49,262 - Loaded System Directive: org.apache.velocity.runtime.directive.Break
2019-11-20 16:15:49,263 - Loaded System Directive: org.apache.velocity.runtime.directive.Evaluate
2019-11-20 16:15:49,263 - Loaded System Directive: org.apache.velocity.runtime.directive.Literal
2019-11-20 16:15:49,264 - Loaded System Directive: org.apache.velocity.runtime.directive.Macro
2019-11-20 16:15:49,265 - Loaded System Directive: org.apache.velocity.runtime.directive.Parse
2019-11-20 16:15:49,266 - Loaded System Directive: org.apache.velocity.runtime.directive.Include
2019-11-20 16:15:49,268 - Loaded System Directive: org.apache.velocity.runtime.directive.Foreach
2019-11-20 16:15:49,297 - Created '20' parsers.
2019-11-20 16:15:49,305 - Velocimacro : "velocimacro.library" is not set.  Trying default library: VM_global_library.vm
2019-11-20 16:15:49,305 - Velocimacro : Default library not found.
2019-11-20 16:15:49,305 - Velocimacro : allowInline = true : VMs can be defined inline in templates
2019-11-20 16:15:49,305 - Velocimacro : allowInlineToOverride = false : VMs defined inline may NOT replace previous VM definitions
2019-11-20 16:15:49,306 - Velocimacro : allowInlineLocal = false : VMs defined inline will be global in scope if allowed.
2019-11-20 16:15:49,306 - Velocimacro : autoload off : VM system will not automatically reload global library macros
2019-11-20 17:06:11,555 - Log4JLogChute initialized using file 'velocity.log'
2019-11-20 17:06:11,556 - Initializing Velocity, Calling init()...
2019-11-20 17:06:11,556 - Starting Apache Velocity v1.7 (compiled: 2010-11-19 12:14:37)
2019-11-20 17:06:11,556 - Default Properties File: org\apache\velocity\runtime\defaults\velocity.properties
2019-11-20 17:06:11,556 - Trying to use logger class org.apache.velocity.runtime.log.AvalonLogChute
2019-11-20 17:06:11,556 - Target log system for org.apache.velocity.runtime.log.AvalonLogChute is not available (java.lang.NoClassDefFoundError: org/apache/log/format/Formatter).  Falling back to next log system...
2019-11-20 17:06:11,556 - Trying to use logger class org.apache.velocity.runtime.log.Log4JLogChute
2019-11-20 17:06:11,556 - Using logger class org.apache.velocity.runtime.log.Log4JLogChute
2019-11-20 17:06:11,562 - ResourceLoader instantiated: org.apache.velocity.runtime.resource.loader.FileResourceLoader
2019-11-20 17:06:11,563 - Do unicode file recognition:  false
2019-11-20 17:06:11,563 - FileResourceLoader : adding path '.'
2019-11-20 17:06:11,578 - ResourceCache: initialized (class org.apache.velocity.runtime.resource.ResourceCacheImpl) with class java.util.Collections$SynchronizedMap cache map.
2019-11-20 17:06:11,580 - Loaded System Directive: org.apache.velocity.runtime.directive.Stop
2019-11-20 17:06:11,581 - Loaded System Directive: org.apache.velocity.runtime.directive.Define
2019-11-20 17:06:11,582 - Loaded System Directive: org.apache.velocity.runtime.directive.Break
2019-11-20 17:06:11,583 - Loaded System Directive: org.apache.velocity.runtime.directive.Evaluate
2019-11-20 17:06:11,584 - Loaded System Directive: org.apache.velocity.runtime.directive.Literal
2019-11-20 17:06:11,585 - Loaded System Directive: org.apache.velocity.runtime.directive.Macro
2019-11-20 17:06:11,586 - Loaded System Directive: org.apache.velocity.runtime.directive.Parse
2019-11-20 17:06:11,587 - Loaded System Directive: org.apache.velocity.runtime.directive.Include
2019-11-20 17:06:11,588 - Loaded System Directive: org.apache.velocity.runtime.directive.Foreach
2019-11-20 17:06:11,620 - Created '20' parsers.
2019-11-20 17:06:11,628 - Velocimacro : "velocimacro.library" is not set.  Trying default library: VM_global_library.vm
2019-11-20 17:06:11,628 - Velocimacro : Default library not found.
2019-11-20 17:06:11,628 - Velocimacro : allowInline = true : VMs can be defined inline in templates
2019-11-20 17:06:11,628 - Velocimacro : allowInlineToOverride = false : VMs defined inline may NOT replace previous VM definitions
2019-11-20 17:06:11,628 - Velocimacro : allowInlineLocal = false : VMs defined inline will be global in scope if allowed.
2019-11-20 17:06:11,628 - Velocimacro : autoload off : VM system will not automatically reload global library macros
2019-11-20 17:06:47,089 - Log4JLogChute initialized using file 'velocity.log'
2019-11-20 17:06:47,089 - Initializing Velocity, Calling init()...
2019-11-20 17:06:47,089 - Starting Apache Velocity v1.7 (compiled: 2010-11-19 12:14:37)
2019-11-20 17:06:47,089 - Default Properties File: org\apache\velocity\runtime\defaults\velocity.properties
2019-11-20 17:06:47,090 - Trying to use logger class org.apache.velocity.runtime.log.AvalonLogChute
2019-11-20 17:06:47,090 - Target log system for org.apache.velocity.runtime.log.AvalonLogChute is not available (java.lang.NoClassDefFoundError: org/apache/log/format/Formatter).  Falling back to next log system...
2019-11-20 17:06:47,090 - Trying to use logger class org.apache.velocity.runtime.log.Log4JLogChute
2019-11-20 17:06:47,090 - Using logger class org.apache.velocity.runtime.log.Log4JLogChute
2019-11-20 17:06:47,094 - ResourceLoader instantiated: org.apache.velocity.runtime.resource.loader.FileResourceLoader
2019-11-20 17:06:47,096 - Do unicode file recognition:  false
2019-11-20 17:06:47,096 - FileResourceLoader : adding path '.'
2019-11-20 17:06:47,107 - ResourceCache: initialized (class org.apache.velocity.runtime.resource.ResourceCacheImpl) with class java.util.Collections$SynchronizedMap cache map.
2019-11-20 17:06:47,109 - Loaded System Directive: org.apache.velocity.runtime.directive.Stop
2019-11-20 17:06:47,110 - Loaded System Directive: org.apache.velocity.runtime.directive.Define
2019-11-20 17:06:47,111 - Loaded System Directive: org.apache.velocity.runtime.directive.Break
2019-11-20 17:06:47,112 - Loaded System Directive: org.apache.velocity.runtime.directive.Evaluate
2019-11-20 17:06:47,113 - Loaded System Directive: org.apache.velocity.runtime.directive.Literal
2019-11-20 17:06:47,114 - Loaded System Directive: org.apache.velocity.runtime.directive.Macro
2019-11-20 17:06:47,115 - Loaded System Directive: org.apache.velocity.runtime.directive.Parse
2019-11-20 17:06:47,116 - Loaded System Directive: org.apache.velocity.runtime.directive.Include
2019-11-20 17:06:47,117 - Loaded System Directive: org.apache.velocity.runtime.directive.Foreach
2019-11-20 17:06:47,149 - Created '20' parsers.
2019-11-20 17:06:47,157 - Velocimacro : "velocimacro.library" is not set.  Trying default library: VM_global_library.vm
2019-11-20 17:06:47,158 - Velocimacro : Default library not found.
2019-11-20 17:06:47,158 - Velocimacro : allowInline = true : VMs can be defined inline in templates
2019-11-20 17:06:47,158 - Velocimacro : allowInlineToOverride = false : VMs defined inline may NOT replace previous VM definitions
2019-11-20 17:06:47,158 - Velocimacro : allowInlineLocal = false : VMs defined inline will be global in scope if allowed.
2019-11-20 17:06:47,158 - Velocimacro : autoload off : VM system will not automatically reload global library macros
2019-11-20 17:31:49,199 - Log4JLogChute initialized using file 'velocity.log'
2019-11-20 17:31:49,200 - Initializing Velocity, Calling init()...
2019-11-20 17:31:49,200 - Starting Apache Velocity v1.7 (compiled: 2010-11-19 12:14:37)
2019-11-20 17:31:49,200 - Default Properties File: org\apache\velocity\runtime\defaults\velocity.properties
2019-11-20 17:31:49,200 - Trying to use logger class org.apache.velocity.runtime.log.AvalonLogChute
2019-11-20 17:31:49,200 - Target log system for org.apache.velocity.runtime.log.AvalonLogChute is not available (java.lang.NoClassDefFoundError: org/apache/log/format/Formatter).  Falling back to next log system...
2019-11-20 17:31:49,200 - Trying to use logger class org.apache.velocity.runtime.log.Log4JLogChute
2019-11-20 17:31:49,200 - Using logger class org.apache.velocity.runtime.log.Log4JLogChute
2019-11-20 17:31:49,208 - ResourceLoader instantiated: org.apache.velocity.runtime.resource.loader.FileResourceLoader
2019-11-20 17:31:49,210 - Do unicode file recognition:  false
2019-11-20 17:31:49,210 - FileResourceLoader : adding path '.'
2019-11-20 17:31:49,231 - ResourceCache: initialized (class org.apache.velocity.runtime.resource.ResourceCacheImpl) with class java.util.Collections$SynchronizedMap cache map.
2019-11-20 17:31:49,234 - Loaded System Directive: org.apache.velocity.runtime.directive.Stop
2019-11-20 17:31:49,236 - Loaded System Directive: org.apache.velocity.runtime.directive.Define
2019-11-20 17:31:49,242 - Loaded System Directive: org.apache.velocity.runtime.directive.Break
2019-11-20 17:31:49,247 - Loaded System Directive: org.apache.velocity.runtime.directive.Evaluate
2019-11-20 17:31:49,248 - Loaded System Directive: org.apache.velocity.runtime.directive.Literal
2019-11-20 17:31:49,252 - Loaded System Directive: org.apache.velocity.runtime.directive.Macro
2019-11-20 17:31:49,254 - Loaded System Directive: org.apache.velocity.runtime.directive.Parse
2019-11-20 17:31:49,256 - Loaded System Directive: org.apache.velocity.runtime.directive.Include
2019-11-20 17:31:49,258 - Loaded System Directive: org.apache.velocity.runtime.directive.Foreach
2019-11-20 17:31:49,305 - Created '20' parsers.
2019-11-20 17:31:49,313 - Velocimacro : "velocimacro.library" is not set.  Trying default library: VM_global_library.vm
2019-11-20 17:31:49,314 - Velocimacro : Default library not found.
2019-11-20 17:31:49,314 - Velocimacro : allowInline = true : VMs can be defined inline in templates
2019-11-20 17:31:49,314 - Velocimacro : allowInlineToOverride = false : VMs defined inline may NOT replace previous VM definitions
2019-11-20 17:31:49,314 - Velocimacro : allowInlineLocal = false : VMs defined inline will be global in scope if allowed.
2019-11-20 17:31:49,314 - Velocimacro : autoload off : VM system will not automatically reload global library macros
2019-11-20 17:49:01,993 - Log4JLogChute initialized using file 'velocity.log'
2019-11-20 17:49:01,994 - Initializing Velocity, Calling init()...
2019-11-20 17:49:01,994 - Starting Apache Velocity v1.7 (compiled: 2010-11-19 12:14:37)
2019-11-20 17:49:01,994 - Default Properties File: org\apache\velocity\runtime\defaults\velocity.properties
2019-11-20 17:49:01,994 - Trying to use logger class org.apache.velocity.runtime.log.AvalonLogChute
2019-11-20 17:49:01,994 - Target log system for org.apache.velocity.runtime.log.AvalonLogChute is not available (java.lang.NoClassDefFoundError: org/apache/log/format/Formatter).  Falling back to next log system...
2019-11-20 17:49:01,994 - Trying to use logger class org.apache.velocity.runtime.log.Log4JLogChute
2019-11-20 17:49:01,994 - Using logger class org.apache.velocity.runtime.log.Log4JLogChute
2019-11-20 17:49:02,004 - ResourceLoader instantiated: org.apache.velocity.runtime.resource.loader.FileResourceLoader
2019-11-20 17:49:02,006 - Do unicode file recognition:  false
2019-11-20 17:49:02,006 - FileResourceLoader : adding path '.'
2019-11-20 17:49:02,030 - ResourceCache: initialized (class org.apache.velocity.runtime.resource.ResourceCacheImpl) with class java.util.Collections$SynchronizedMap cache map.
2019-11-20 17:49:02,033 - Loaded System Directive: org.apache.velocity.runtime.directive.Stop
2019-11-20 17:49:02,035 - Loaded System Directive: org.apache.velocity.runtime.directive.Define
2019-11-20 17:49:02,036 - Loaded System Directive: org.apache.velocity.runtime.directive.Break
2019-11-20 17:49:02,038 - Loaded System Directive: org.apache.velocity.runtime.directive.Evaluate
2019-11-20 17:49:02,039 - Loaded System Directive: org.apache.velocity.runtime.directive.Literal
2019-11-20 17:49:02,042 - Loaded System Directive: org.apache.velocity.runtime.directive.Macro
2019-11-20 17:49:02,044 - Loaded System Directive: org.apache.velocity.runtime.directive.Parse
2019-11-20 17:49:02,047 - Loaded System Directive: org.apache.velocity.runtime.directive.Include
2019-11-20 17:49:02,050 - Loaded System Directive: org.apache.velocity.runtime.directive.Foreach
2019-11-20 17:49:02,102 - Created '20' parsers.
2019-11-20 17:49:02,113 - Velocimacro : "velocimacro.library" is not set.  Trying default library: VM_global_library.vm
2019-11-20 17:49:02,114 - Velocimacro : Default library not found.
2019-11-20 17:49:02,114 - Velocimacro : allowInline = true : VMs can be defined inline in templates
2019-11-20 17:49:02,114 - Velocimacro : allowInlineToOverride = false : VMs defined inline may NOT replace previous VM definitions
2019-11-20 17:49:02,114 - Velocimacro : allowInlineLocal = false : VMs defined inline will be global in scope if allowed.
2019-11-20 17:49:02,114 - Velocimacro : autoload off : VM system will not automatically reload global library macros
2019-11-20 17:58:22,127 - Log4JLogChute initialized using file 'velocity.log'
2019-11-20 17:58:22,127 - Initializing Velocity, Calling init()...
2019-11-20 17:58:22,127 - Starting Apache Velocity v1.7 (compiled: 2010-11-19 12:14:37)
2019-11-20 17:58:22,127 - Default Properties File: org\apache\velocity\runtime\defaults\velocity.properties
2019-11-20 17:58:22,127 - Trying to use logger class org.apache.velocity.runtime.log.AvalonLogChute
2019-11-20 17:58:22,127 - Target log system for org.apache.velocity.runtime.log.AvalonLogChute is not available (java.lang.NoClassDefFoundError: org/apache/log/format/Formatter).  Falling back to next log system...
2019-11-20 17:58:22,127 - Trying to use logger class org.apache.velocity.runtime.log.Log4JLogChute
2019-11-20 17:58:22,127 - Using logger class org.apache.velocity.runtime.log.Log4JLogChute
2019-11-20 17:58:22,134 - ResourceLoader instantiated: org.apache.velocity.runtime.resource.loader.FileResourceLoader
2019-11-20 17:58:22,137 - Do unicode file recognition:  false
2019-11-20 17:58:22,137 - FileResourceLoader : adding path '.'
2019-11-20 17:58:22,159 - ResourceCache: initialized (class org.apache.velocity.runtime.resource.ResourceCacheImpl) with class java.util.Collections$SynchronizedMap cache map.
2019-11-20 17:58:22,160 - Loaded System Directive: org.apache.velocity.runtime.directive.Stop
2019-11-20 17:58:22,162 - Loaded System Directive: org.apache.velocity.runtime.directive.Define
2019-11-20 17:58:22,164 - Loaded System Directive: org.apache.velocity.runtime.directive.Break
2019-11-20 17:58:22,166 - Loaded System Directive: org.apache.velocity.runtime.directive.Evaluate
2019-11-20 17:58:22,167 - Loaded System Directive: org.apache.velocity.runtime.directive.Literal
2019-11-20 17:58:22,168 - Loaded System Directive: org.apache.velocity.runtime.directive.Macro
2019-11-20 17:58:22,170 - Loaded System Directive: org.apache.velocity.runtime.directive.Parse
2019-11-20 17:58:22,172 - Loaded System Directive: org.apache.velocity.runtime.directive.Include
2019-11-20 17:58:22,174 - Loaded System Directive: org.apache.velocity.runtime.directive.Foreach
2019-11-20 17:58:22,211 - Created '20' parsers.
2019-11-20 17:58:22,219 - Velocimacro : "velocimacro.library" is not set.  Trying default library: VM_global_library.vm
2019-11-20 17:58:22,219 - Velocimacro : Default library not found.
2019-11-20 17:58:22,219 - Velocimacro : allowInline = true : VMs can be defined inline in templates
2019-11-20 17:58:22,219 - Velocimacro : allowInlineToOverride = false : VMs defined inline may NOT replace previous VM definitions
2019-11-20 17:58:22,219 - Velocimacro : allowInlineLocal = false : VMs defined inline will be global in scope if allowed.
2019-11-20 17:58:22,219 - Velocimacro : autoload off : VM system will not automatically reload global library macros
2019-11-20 20:04:02,377 - Log4JLogChute initialized using file 'velocity.log'
2019-11-20 20:04:02,379 - Initializing Velocity, Calling init()...
2019-11-20 20:04:02,379 - Starting Apache Velocity v1.7 (compiled: 2010-11-19 12:14:37)
2019-11-20 20:04:02,379 - Default Properties File: org\apache\velocity\runtime\defaults\velocity.properties
2019-11-20 20:04:02,379 - Trying to use logger class org.apache.velocity.runtime.log.AvalonLogChute
2019-11-20 20:04:02,379 - Target log system for org.apache.velocity.runtime.log.AvalonLogChute is not available (java.lang.NoClassDefFoundError: org/apache/log/format/Formatter).  Falling back to next log system...
2019-11-20 20:04:02,379 - Trying to use logger class org.apache.velocity.runtime.log.Log4JLogChute
2019-11-20 20:04:02,379 - Using logger class org.apache.velocity.runtime.log.Log4JLogChute
2019-11-20 20:04:02,389 - ResourceLoader instantiated: org.apache.velocity.runtime.resource.loader.FileResourceLoader
2019-11-20 20:04:02,391 - Do unicode file recognition:  false
2019-11-20 20:04:02,391 - FileResourceLoader : adding path '.'
2019-11-20 20:04:02,455 - ResourceCache: initialized (class org.apache.velocity.runtime.resource.ResourceCacheImpl) with class java.util.Collections$SynchronizedMap cache map.
2019-11-20 20:04:02,457 - Loaded System Directive: org.apache.velocity.runtime.directive.Stop
2019-11-20 20:04:02,460 - Loaded System Directive: org.apache.velocity.runtime.directive.Define
2019-11-20 20:04:02,461 - Loaded System Directive: org.apache.velocity.runtime.directive.Break
2019-11-20 20:04:02,463 - Loaded System Directive: org.apache.velocity.runtime.directive.Evaluate
2019-11-20 20:04:02,464 - Loaded System Directive: org.apache.velocity.runtime.directive.Literal
2019-11-20 20:04:02,466 - Loaded System Directive: org.apache.velocity.runtime.directive.Macro
2019-11-20 20:04:02,468 - Loaded System Directive: org.apache.velocity.runtime.directive.Parse
2019-11-20 20:04:02,472 - Loaded System Directive: org.apache.velocity.runtime.directive.Include
2019-11-20 20:04:02,474 - Loaded System Directive: org.apache.velocity.runtime.directive.Foreach
2019-11-20 20:04:02,576 - Created '20' parsers.
2019-11-20 20:04:02,594 - Velocimacro : "velocimacro.library" is not set.  Trying default library: VM_global_library.vm
2019-11-20 20:04:02,594 - Velocimacro : Default library not found.
2019-11-20 20:04:02,595 - Velocimacro : allowInline = true : VMs can be defined inline in templates
2019-11-20 20:04:02,595 - Velocimacro : allowInlineToOverride = false : VMs defined inline may NOT replace previous VM definitions
2019-11-20 20:04:02,595 - Velocimacro : allowInlineLocal = false : VMs defined inline will be global in scope if allowed.
2019-11-20 20:04:02,595 - Velocimacro : autoload off : VM system will not automatically reload global library macros
2019-11-21 17:17:48,195 - Log4JLogChute initialized using file 'velocity.log'
2019-11-21 17:17:48,195 - Initializing Velocity, Calling init()...
2019-11-21 17:17:48,195 - Starting Apache Velocity v1.7 (compiled: 2010-11-19 12:14:37)
2019-11-21 17:17:48,196 - Default Properties File: org\apache\velocity\runtime\defaults\velocity.properties
2019-11-21 17:17:48,196 - Trying to use logger class org.apache.velocity.runtime.log.AvalonLogChute
2019-11-21 17:17:48,196 - Target log system for org.apache.velocity.runtime.log.AvalonLogChute is not available (java.lang.NoClassDefFoundError: org/apache/log/format/Formatter).  Falling back to next log system...
2019-11-21 17:17:48,196 - Trying to use logger class org.apache.velocity.runtime.log.Log4JLogChute
2019-11-21 17:17:48,196 - Using logger class org.apache.velocity.runtime.log.Log4JLogChute
2019-11-21 17:17:48,204 - ResourceLoader instantiated: org.apache.velocity.runtime.resource.loader.FileResourceLoader
2019-11-21 17:17:48,206 - Do unicode file recognition:  false
2019-11-21 17:17:48,206 - FileResourceLoader : adding path '.'
2019-11-21 17:17:48,228 - ResourceCache: initialized (class org.apache.velocity.runtime.resource.ResourceCacheImpl) with class java.util.Collections$SynchronizedMap cache map.
2019-11-21 17:17:48,231 - Loaded System Directive: org.apache.velocity.runtime.directive.Stop
2019-11-21 17:17:48,234 - Loaded System Directive: org.apache.velocity.runtime.directive.Define
2019-11-21 17:17:48,235 - Loaded System Directive: org.apache.velocity.runtime.directive.Break
2019-11-21 17:17:48,236 - Loaded System Directive: org.apache.velocity.runtime.directive.Evaluate
2019-11-21 17:17:48,238 - Loaded System Directive: org.apache.velocity.runtime.directive.Literal
2019-11-21 17:17:48,240 - Loaded System Directive: org.apache.velocity.runtime.directive.Macro
2019-11-21 17:17:48,242 - Loaded System Directive: org.apache.velocity.runtime.directive.Parse
2019-11-21 17:17:48,244 - Loaded System Directive: org.apache.velocity.runtime.directive.Include
2019-11-21 17:17:48,246 - Loaded System Directive: org.apache.velocity.runtime.directive.Foreach
2019-11-21 17:17:48,296 - Created '20' parsers.
2019-11-21 17:17:48,305 - Velocimacro : "velocimacro.library" is not set.  Trying default library: VM_global_library.vm
2019-11-21 17:17:48,305 - Velocimacro : Default library not found.
2019-11-21 17:17:48,305 - Velocimacro : allowInline = true : VMs can be defined inline in templates
2019-11-21 17:17:48,305 - Velocimacro : allowInlineToOverride = false : VMs defined inline may NOT replace previous VM definitions
2019-11-21 17:17:48,305 - Velocimacro : allowInlineLocal = false : VMs defined inline will be global in scope if allowed.
2019-11-21 17:17:48,305 - Velocimacro : autoload off : VM system will not automatically reload global library macros
2019-11-21 17:21:11,165 - Log4JLogChute initialized using file 'velocity.log'
2019-11-21 17:21:11,167 - Initializing Velocity, Calling init()...
2019-11-21 17:21:11,167 - Starting Apache Velocity v1.7 (compiled: 2010-11-19 12:14:37)
2019-11-21 17:21:11,167 - Default Properties File: org\apache\velocity\runtime\defaults\velocity.properties
2019-11-21 17:21:11,167 - Trying to use logger class org.apache.velocity.runtime.log.AvalonLogChute
2019-11-21 17:21:11,167 - Target log system for org.apache.velocity.runtime.log.AvalonLogChute is not available (java.lang.NoClassDefFoundError: org/apache/log/format/Formatter).  Falling back to next log system...
2019-11-21 17:21:11,168 - Trying to use logger class org.apache.velocity.runtime.log.Log4JLogChute
2019-11-21 17:21:11,168 - Using logger class org.apache.velocity.runtime.log.Log4JLogChute
2019-11-21 17:21:11,176 - ResourceLoader instantiated: org.apache.velocity.runtime.resource.loader.FileResourceLoader
2019-11-21 17:21:11,178 - Do unicode file recognition:  false
2019-11-21 17:21:11,178 - FileResourceLoader : adding path '.'
2019-11-21 17:21:11,209 - ResourceCache: initialized (class org.apache.velocity.runtime.resource.ResourceCacheImpl) with class java.util.Collections$SynchronizedMap cache map.
2019-11-21 17:21:11,211 - Loaded System Directive: org.apache.velocity.runtime.directive.Stop
2019-11-21 17:21:11,212 - Loaded System Directive: org.apache.velocity.runtime.directive.Define
2019-11-21 17:21:11,214 - Loaded System Directive: org.apache.velocity.runtime.directive.Break
2019-11-21 17:21:11,215 - Loaded System Directive: org.apache.velocity.runtime.directive.Evaluate
2019-11-21 17:21:11,216 - Loaded System Directive: org.apache.velocity.runtime.directive.Literal
2019-11-21 17:21:11,218 - Loaded System Directive: org.apache.velocity.runtime.directive.Macro
2019-11-21 17:21:11,219 - Loaded System Directive: org.apache.velocity.runtime.directive.Parse
2019-11-21 17:21:11,221 - Loaded System Directive: org.apache.velocity.runtime.directive.Include
2019-11-21 17:21:11,223 - Loaded System Directive: org.apache.velocity.runtime.directive.Foreach
2019-11-21 17:21:11,268 - Created '20' parsers.
2019-11-21 17:21:11,278 - Velocimacro : "velocimacro.library" is not set.  Trying default library: VM_global_library.vm
2019-11-21 17:21:11,278 - Velocimacro : Default library not found.
2019-11-21 17:21:11,278 - Velocimacro : allowInline = true : VMs can be defined inline in templates
2019-11-21 17:21:11,278 - Velocimacro : allowInlineToOverride = false : VMs defined inline may NOT replace previous VM definitions
2019-11-21 17:21:11,279 - Velocimacro : allowInlineLocal = false : VMs defined inline will be global in scope if allowed.
2019-11-21 17:21:11,279 - Velocimacro : autoload off : VM system will not automatically reload global library macros
2019-11-21 18:14:47,656 - Log4JLogChute initialized using file 'velocity.log'
2019-11-21 18:14:47,657 - Initializing Velocity, Calling init()...
2019-11-21 18:14:47,657 - Starting Apache Velocity v1.7 (compiled: 2010-11-19 12:14:37)
2019-11-21 18:14:47,657 - Default Properties File: org\apache\velocity\runtime\defaults\velocity.properties
2019-11-21 18:14:47,657 - Trying to use logger class org.apache.velocity.runtime.log.AvalonLogChute
2019-11-21 18:14:47,657 - Target log system for org.apache.velocity.runtime.log.AvalonLogChute is not available (java.lang.NoClassDefFoundError: org/apache/log/format/Formatter).  Falling back to next log system...
2019-11-21 18:14:47,657 - Trying to use logger class org.apache.velocity.runtime.log.Log4JLogChute
2019-11-21 18:14:47,657 - Using logger class org.apache.velocity.runtime.log.Log4JLogChute
2019-11-21 18:14:47,684 - ResourceLoader instantiated: org.apache.velocity.runtime.resource.loader.FileResourceLoader
2019-11-21 18:14:47,696 - Do unicode file recognition:  false
2019-11-21 18:14:47,696 - FileResourceLoader : adding path '.'
2019-11-21 18:14:47,730 - ResourceCache: initialized (class org.apache.velocity.runtime.resource.ResourceCacheImpl) with class java.util.Collections$SynchronizedMap cache map.
2019-11-21 18:14:47,732 - Loaded System Directive: org.apache.velocity.runtime.directive.Stop
2019-11-21 18:14:47,739 - Loaded System Directive: org.apache.velocity.runtime.directive.Define
2019-11-21 18:14:47,741 - Loaded System Directive: org.apache.velocity.runtime.directive.Break
2019-11-21 18:14:47,742 - Loaded System Directive: org.apache.velocity.runtime.directive.Evaluate
2019-11-21 18:14:47,743 - Loaded System Directive: org.apache.velocity.runtime.directive.Literal
2019-11-21 18:14:47,745 - Loaded System Directive: org.apache.velocity.runtime.directive.Macro
2019-11-21 18:14:47,746 - Loaded System Directive: org.apache.velocity.runtime.directive.Parse
2019-11-21 18:14:47,752 - Loaded System Directive: org.apache.velocity.runtime.directive.Include
2019-11-21 18:14:47,754 - Loaded System Directive: org.apache.velocity.runtime.directive.Foreach
2019-11-21 18:14:47,798 - Created '20' parsers.
2019-11-21 18:14:47,807 - Velocimacro : "velocimacro.library" is not set.  Trying default library: VM_global_library.vm
2019-11-21 18:14:47,807 - Velocimacro : Default library not found.
2019-11-21 18:14:47,807 - Velocimacro : allowInline = true : VMs can be defined inline in templates
2019-11-21 18:14:47,807 - Velocimacro : allowInlineToOverride = false : VMs defined inline may NOT replace previous VM definitions
2019-11-21 18:14:47,807 - Velocimacro : allowInlineLocal = false : VMs defined inline will be global in scope if allowed.
2019-11-21 18:14:47,807 - Velocimacro : autoload off : VM system will not automatically reload global library macros
2019-11-21 18:24:07,976 - Log4JLogChute initialized using file 'velocity.log'
2019-11-21 18:24:07,977 - Initializing Velocity, Calling init()...
2019-11-21 18:24:07,977 - Starting Apache Velocity v1.7 (compiled: 2010-11-19 12:14:37)
2019-11-21 18:24:07,977 - Default Properties File: org\apache\velocity\runtime\defaults\velocity.properties
2019-11-21 18:24:07,977 - Trying to use logger class org.apache.velocity.runtime.log.AvalonLogChute
2019-11-21 18:24:07,977 - Target log system for org.apache.velocity.runtime.log.AvalonLogChute is not available (java.lang.NoClassDefFoundError: org/apache/log/format/Formatter).  Falling back to next log system...
2019-11-21 18:24:07,977 - Trying to use logger class org.apache.velocity.runtime.log.Log4JLogChute
2019-11-21 18:24:07,977 - Using logger class org.apache.velocity.runtime.log.Log4JLogChute
2019-11-21 18:24:07,986 - ResourceLoader instantiated: org.apache.velocity.runtime.resource.loader.FileResourceLoader
2019-11-21 18:24:07,988 - Do unicode file recognition:  false
2019-11-21 18:24:07,988 - FileResourceLoader : adding path '.'
2019-11-21 18:24:08,008 - ResourceCache: initialized (class org.apache.velocity.runtime.resource.ResourceCacheImpl) with class java.util.Collections$SynchronizedMap cache map.
2019-11-21 18:24:08,010 - Loaded System Directive: org.apache.velocity.runtime.directive.Stop
2019-11-21 18:24:08,014 - Loaded System Directive: org.apache.velocity.runtime.directive.Define
2019-11-21 18:24:08,016 - Loaded System Directive: org.apache.velocity.runtime.directive.Break
2019-11-21 18:24:08,017 - Loaded System Directive: org.apache.velocity.runtime.directive.Evaluate
2019-11-21 18:24:08,018 - Loaded System Directive: org.apache.velocity.runtime.directive.Literal
2019-11-21 18:24:08,022 - Loaded System Directive: org.apache.velocity.runtime.directive.Macro
2019-11-21 18:24:08,024 - Loaded System Directive: org.apache.velocity.runtime.directive.Parse
2019-11-21 18:24:08,026 - Loaded System Directive: org.apache.velocity.runtime.directive.Include
2019-11-21 18:24:08,030 - Loaded System Directive: org.apache.velocity.runtime.directive.Foreach
2019-11-21 18:24:08,070 - Created '20' parsers.
2019-11-21 18:24:08,079 - Velocimacro : "velocimacro.library" is not set.  Trying default library: VM_global_library.vm
2019-11-21 18:24:08,080 - Velocimacro : Default library not found.
2019-11-21 18:24:08,080 - Velocimacro : allowInline = true : VMs can be defined inline in templates
2019-11-21 18:24:08,080 - Velocimacro : allowInlineToOverride = false : VMs defined inline may NOT replace previous VM definitions
2019-11-21 18:24:08,080 - Velocimacro : allowInlineLocal = false : VMs defined inline will be global in scope if allowed.
2019-11-21 18:24:08,080 - Velocimacro : autoload off : VM system will not automatically reload global library macros
2019-11-21 18:33:29,063 - Log4JLogChute initialized using file 'velocity.log'
2019-11-21 18:33:29,064 - Initializing Velocity, Calling init()...
2019-11-21 18:33:29,064 - Starting Apache Velocity v1.7 (compiled: 2010-11-19 12:14:37)
2019-11-21 18:33:29,064 - Default Properties File: org\apache\velocity\runtime\defaults\velocity.properties
2019-11-21 18:33:29,064 - Trying to use logger class org.apache.velocity.runtime.log.AvalonLogChute
2019-11-21 18:33:29,064 - Target log system for org.apache.velocity.runtime.log.AvalonLogChute is not available (java.lang.NoClassDefFoundError: org/apache/log/format/Formatter).  Falling back to next log system...
2019-11-21 18:33:29,064 - Trying to use logger class org.apache.velocity.runtime.log.Log4JLogChute
2019-11-21 18:33:29,064 - Using logger class org.apache.velocity.runtime.log.Log4JLogChute
2019-11-21 18:33:29,073 - ResourceLoader instantiated: org.apache.velocity.runtime.resource.loader.FileResourceLoader
2019-11-21 18:33:29,075 - Do unicode file recognition:  false
2019-11-21 18:33:29,075 - FileResourceLoader : adding path '.'
2019-11-21 18:33:29,095 - ResourceCache: initialized (class org.apache.velocity.runtime.resource.ResourceCacheImpl) with class java.util.Collections$SynchronizedMap cache map.
2019-11-21 18:33:29,097 - Loaded System Directive: org.apache.velocity.runtime.directive.Stop
2019-11-21 18:33:29,100 - Loaded System Directive: org.apache.velocity.runtime.directive.Define
2019-11-21 18:33:29,101 - Loaded System Directive: org.apache.velocity.runtime.directive.Break
2019-11-21 18:33:29,102 - Loaded System Directive: org.apache.velocity.runtime.directive.Evaluate
2019-11-21 18:33:29,103 - Loaded System Directive: org.apache.velocity.runtime.directive.Literal
2019-11-21 18:33:29,106 - Loaded System Directive: org.apache.velocity.runtime.directive.Macro
2019-11-21 18:33:29,109 - Loaded System Directive: org.apache.velocity.runtime.directive.Parse
2019-11-21 18:33:29,112 - Loaded System Directive: org.apache.velocity.runtime.directive.Include
2019-11-21 18:33:29,114 - Loaded System Directive: org.apache.velocity.runtime.directive.Foreach
2019-11-21 18:33:29,165 - Created '20' parsers.
2019-11-21 18:33:29,175 - Velocimacro : "velocimacro.library" is not set.  Trying default library: VM_global_library.vm
2019-11-21 18:33:29,175 - Velocimacro : Default library not found.
2019-11-21 18:33:29,175 - Velocimacro : allowInline = true : VMs can be defined inline in templates
2019-11-21 18:33:29,175 - Velocimacro : allowInlineToOverride = false : VMs defined inline may NOT replace previous VM definitions
2019-11-21 18:33:29,175 - Velocimacro : allowInlineLocal = false : VMs defined inline will be global in scope if allowed.
2019-11-21 18:33:29,176 - Velocimacro : autoload off : VM system will not automatically reload global library macros
2019-11-22 15:23:00,955 - Log4JLogChute initialized using file 'velocity.log'
2019-11-22 15:23:00,956 - Initializing Velocity, Calling init()...
2019-11-22 15:23:00,956 - Starting Apache Velocity v1.7 (compiled: 2010-11-19 12:14:37)
2019-11-22 15:23:00,956 - Default Properties File: org\apache\velocity\runtime\defaults\velocity.properties
2019-11-22 15:23:00,956 - Trying to use logger class org.apache.velocity.runtime.log.AvalonLogChute
2019-11-22 15:23:00,956 - Target log system for org.apache.velocity.runtime.log.AvalonLogChute is not available (java.lang.NoClassDefFoundError: org/apache/log/format/Formatter).  Falling back to next log system...
2019-11-22 15:23:00,956 - Trying to use logger class org.apache.velocity.runtime.log.Log4JLogChute
2019-11-22 15:23:00,956 - Using logger class org.apache.velocity.runtime.log.Log4JLogChute
2019-11-22 15:23:00,969 - ResourceLoader instantiated: org.apache.velocity.runtime.resource.loader.FileResourceLoader
2019-11-22 15:23:00,971 - Do unicode file recognition:  false
2019-11-22 15:23:00,971 - FileResourceLoader : adding path '.'
2019-11-22 15:23:01,001 - ResourceCache: initialized (class org.apache.velocity.runtime.resource.ResourceCacheImpl) with class java.util.Collections$SynchronizedMap cache map.
2019-11-22 15:23:01,004 - Loaded System Directive: org.apache.velocity.runtime.directive.Stop
2019-11-22 15:23:01,007 - Loaded System Directive: org.apache.velocity.runtime.directive.Define
2019-11-22 15:23:01,008 - Loaded System Directive: org.apache.velocity.runtime.directive.Break
2019-11-22 15:23:01,011 - Loaded System Directive: org.apache.velocity.runtime.directive.Evaluate
2019-11-22 15:23:01,012 - Loaded System Directive: org.apache.velocity.runtime.directive.Literal
2019-11-22 15:23:01,015 - Loaded System Directive: org.apache.velocity.runtime.directive.Macro
2019-11-22 15:23:01,017 - Loaded System Directive: org.apache.velocity.runtime.directive.Parse
2019-11-22 15:23:01,023 - Loaded System Directive: org.apache.velocity.runtime.directive.Include
2019-11-22 15:23:01,026 - Loaded System Directive: org.apache.velocity.runtime.directive.Foreach
2019-11-22 15:23:01,093 - Created '20' parsers.
2019-11-22 15:23:01,105 - Velocimacro : "velocimacro.library" is not set.  Trying default library: VM_global_library.vm
2019-11-22 15:23:01,107 - Velocimacro : Default library not found.
2019-11-22 15:23:01,108 - Velocimacro : allowInline = true : VMs can be defined inline in templates
2019-11-22 15:23:01,108 - Velocimacro : allowInlineToOverride = false : VMs defined inline may NOT replace previous VM definitions
2019-11-22 15:23:01,108 - Velocimacro : allowInlineLocal = false : VMs defined inline will be global in scope if allowed.
2019-11-22 15:23:01,108 - Velocimacro : autoload off : VM system will not automatically reload global library macros
2019-11-22 15:59:43,589 - Log4JLogChute initialized using file 'velocity.log'
2019-11-22 15:59:43,589 - Initializing Velocity, Calling init()...
2019-11-22 15:59:43,590 - Starting Apache Velocity v1.7 (compiled: 2010-11-19 12:14:37)
2019-11-22 15:59:43,590 - Default Properties File: org\apache\velocity\runtime\defaults\velocity.properties
2019-11-22 15:59:43,590 - Trying to use logger class org.apache.velocity.runtime.log.AvalonLogChute
2019-11-22 15:59:43,590 - Target log system for org.apache.velocity.runtime.log.AvalonLogChute is not available (java.lang.NoClassDefFoundError: org/apache/log/format/Formatter).  Falling back to next log system...
2019-11-22 15:59:43,590 - Trying to use logger class org.apache.velocity.runtime.log.Log4JLogChute
2019-11-22 15:59:43,590 - Using logger class org.apache.velocity.runtime.log.Log4JLogChute
2019-11-22 15:59:43,598 - ResourceLoader instantiated: org.apache.velocity.runtime.resource.loader.FileResourceLoader
2019-11-22 15:59:43,600 - Do unicode file recognition:  false
2019-11-22 15:59:43,600 - FileResourceLoader : adding path '.'
2019-11-22 15:59:43,619 - ResourceCache: initialized (class org.apache.velocity.runtime.resource.ResourceCacheImpl) with class java.util.Collections$SynchronizedMap cache map.
2019-11-22 15:59:43,622 - Loaded System Directive: org.apache.velocity.runtime.directive.Stop
2019-11-22 15:59:43,624 - Loaded System Directive: org.apache.velocity.runtime.directive.Define
2019-11-22 15:59:43,625 - Loaded System Directive: org.apache.velocity.runtime.directive.Break
2019-11-22 15:59:43,627 - Loaded System Directive: org.apache.velocity.runtime.directive.Evaluate
2019-11-22 15:59:43,628 - Loaded System Directive: org.apache.velocity.runtime.directive.Literal
2019-11-22 15:59:43,630 - Loaded System Directive: org.apache.velocity.runtime.directive.Macro
2019-11-22 15:59:43,632 - Loaded System Directive: org.apache.velocity.runtime.directive.Parse
2019-11-22 15:59:43,634 - Loaded System Directive: org.apache.velocity.runtime.directive.Include
2019-11-22 15:59:43,636 - Loaded System Directive: org.apache.velocity.runtime.directive.Foreach
2019-11-22 15:59:43,684 - Created '20' parsers.
2019-11-22 15:59:43,695 - Velocimacro : "velocimacro.library" is not set.  Trying default library: VM_global_library.vm
2019-11-22 15:59:43,695 - Velocimacro : Default library not found.
2019-11-22 15:59:43,695 - Velocimacro : allowInline = true : VMs can be defined inline in templates
2019-11-22 15:59:43,695 - Velocimacro : allowInlineToOverride = false : VMs defined inline may NOT replace previous VM definitions
2019-11-22 15:59:43,696 - Velocimacro : allowInlineLocal = false : VMs defined inline will be global in scope if allowed.
2019-11-22 15:59:43,696 - Velocimacro : autoload off : VM system will not automatically reload global library macros
2019-11-27 12:50:20,470 - Log4JLogChute initialized using file 'velocity.log'
2019-11-27 12:50:20,471 - Initializing Velocity, Calling init()...
2019-11-27 12:50:20,471 - Starting Apache Velocity v1.7 (compiled: 2010-11-19 12:14:37)
2019-11-27 12:50:20,471 - Default Properties File: org\apache\velocity\runtime\defaults\velocity.properties
2019-11-27 12:50:20,471 - Trying to use logger class org.apache.velocity.runtime.log.AvalonLogChute
2019-11-27 12:50:20,471 - Target log system for org.apache.velocity.runtime.log.AvalonLogChute is not available (java.lang.NoClassDefFoundError: org/apache/log/format/Formatter).  Falling back to next log system...
2019-11-27 12:50:20,471 - Trying to use logger class org.apache.velocity.runtime.log.Log4JLogChute
2019-11-27 12:50:20,471 - Using logger class org.apache.velocity.runtime.log.Log4JLogChute
2019-11-27 12:50:20,481 - ResourceLoader instantiated: org.apache.velocity.runtime.resource.loader.FileResourceLoader
2019-11-27 12:50:20,483 - Do unicode file recognition:  false
2019-11-27 12:50:20,483 - FileResourceLoader : adding path '.'
2019-11-27 12:50:20,507 - ResourceCache: initialized (class org.apache.velocity.runtime.resource.ResourceCacheImpl) with class java.util.Collections$SynchronizedMap cache map.
2019-11-27 12:50:20,509 - Loaded System Directive: org.apache.velocity.runtime.directive.Stop
2019-11-27 12:50:20,512 - Loaded System Directive: org.apache.velocity.runtime.directive.Define
