-------------------------------------------------------------------------------
Test set: com.sg.dayamed.service.TestProviderService
-------------------------------------------------------------------------------
Tests run: 18, Failures: 0, Errors: 0, Skipped: 0, Time elapsed: 0.053 s - in com.sg.dayamed.service.TestProviderService
