-------------------------------------------------------------------------------
Test set: com.sg.dayamed.controller.TestResetPasswordController
-------------------------------------------------------------------------------
Tests run: 2, Failures: 0, Errors: 0, Skipped: 0, Time elapsed: 2.469 s - in com.sg.dayamed.controller.TestResetPasswordController
