-------------------------------------------------------------------------------
Test set: com.sg.dayamed.helper.TestPatientHelper
-------------------------------------------------------------------------------
Tests run: 2, Failures: 0, Errors: 0, Skipped: 0, Time elapsed: 2.698 s - in com.sg.dayamed.helper.TestPatientHelper
