-------------------------------------------------------------------------------
Test set: com.sg.dayamed.pojo.PasswordChangeReqModelTest
-------------------------------------------------------------------------------
Tests run: 2, Failures: 0, Errors: 0, Skipped: 0, Time elapsed: 14.897 s - in com.sg.dayamed.pojo.PasswordChangeReqModelTest
