-------------------------------------------------------------------------------
Test set: com.sg.dayamed.service.TestBiometricService
-------------------------------------------------------------------------------
Tests run: 14, Failures: 0, Errors: 0, Skipped: 0, Time elapsed: 0.001 s - in com.sg.dayamed.service.TestBiometricService
