-------------------------------------------------------------------------------
Test set: com.sg.dayamed.email.TestSmsService
-------------------------------------------------------------------------------
Tests run: 3, Failures: 0, Errors: 0, Skipped: 0, Time elapsed: 1.945 s - in com.sg.dayamed.email.TestSmsService
