-------------------------------------------------------------------------------
Test set: com.sg.dayamed.service.TestPharmaService
-------------------------------------------------------------------------------
Tests run: 11, Failures: 0, Errors: 0, Skipped: 0, Time elapsed: 0.07 s - in com.sg.dayamed.service.TestPharmaService
