-------------------------------------------------------------------------------
Test set: com.sg.dayamed.controller.TestDeviceController
-------------------------------------------------------------------------------
Tests run: 2, Failures: 0, Errors: 0, Skipped: 0, Time elapsed: 1.043 s - in com.sg.dayamed.controller.TestDeviceController
