-------------------------------------------------------------------------------
Test set: com.sg.dayamed.adapter.patients.TestPatientLoadingFromProviderHandler
-------------------------------------------------------------------------------
Tests run: 4, Failures: 0, Errors: 0, Skipped: 0, Time elapsed: 0.252 s - in com.sg.dayamed.adapter.patients.TestPatientLoadingFromProviderHandler
