-------------------------------------------------------------------------------
Test set: com.sg.dayamed.dosage.frequency.TestMonthlyDosageFrequency
-------------------------------------------------------------------------------
Tests run: 2, Failures: 0, Errors: 0, Skipped: 0, Time elapsed: 0.001 s - in com.sg.dayamed.dosage.frequency.TestMonthlyDosageFrequency
