-------------------------------------------------------------------------------
Test set: com.sg.dayamed.service.TestGoodShepherdAlertProtocol
-------------------------------------------------------------------------------
Tests run: 1, Failures: 0, Errors: 0, Skipped: 0, Time elapsed: 2.192 s - in com.sg.dayamed.service.TestGoodShepherdAlertProtocol
