-------------------------------------------------------------------------------
Test set: com.sg.dayamed.service.v1.vo.users.TestUserDetailsVO
-------------------------------------------------------------------------------
Tests run: 1, Failures: 0, Errors: 0, Skipped: 0, Time elapsed: 0 s - in com.sg.dayamed.service.v1.vo.users.TestUserDetailsVO
