-------------------------------------------------------------------------------
Test set: com.sg.dayamed.pdfhelper.PatientPdfPageEventHelperTest
-------------------------------------------------------------------------------
Tests run: 1, Failures: 0, Errors: 0, Skipped: 0, Time elapsed: 0.578 s - in com.sg.dayamed.pdfhelper.PatientPdfPageEventHelperTest
