-------------------------------------------------------------------------------
Test set: com.sg.dayamed.service.TestOrderOrCartService
-------------------------------------------------------------------------------
Tests run: 1, Failures: 0, Errors: 0, Skipped: 0, Time elapsed: 1.496 s - in com.sg.dayamed.service.TestOrderOrCartService
