-------------------------------------------------------------------------------
Test set: com.sg.dayamed.adapter.patients.TestPatientLoadingFromPharmacistHandler
-------------------------------------------------------------------------------
Tests run: 3, Failures: 0, Errors: 0, Skipped: 0, Time elapsed: 0.094 s - in com.sg.dayamed.adapter.patients.TestPatientLoadingFromPharmacistHandler
