-------------------------------------------------------------------------------
Test set: com.sg.dayamed.rest.controller.web.TestAdminController
-------------------------------------------------------------------------------
Tests run: 2, Failures: 0, Errors: 0, Skipped: 0, Time elapsed: 0.007 s - in com.sg.dayamed.rest.controller.web.TestAdminController
