-------------------------------------------------------------------------------
Test set: com.sg.dayamed.service.TestPrescriptionService
-------------------------------------------------------------------------------
Tests run: 26, Failures: 0, Errors: 0, Skipped: 0, Time elapsed: 0.138 s - in com.sg.dayamed.service.TestPrescriptionService
