-------------------------------------------------------------------------------
Test set: com.sg.dayamed.security.jwtsecurity.security.JwtValidatorTest
-------------------------------------------------------------------------------
Tests run: 2, Failures: 0, Errors: 0, Skipped: 0, Time elapsed: 14.708 s - in com.sg.dayamed.security.jwtsecurity.security.JwtValidatorTest
