-------------------------------------------------------------------------------
Test set: com.sg.dayamed.rest.commons.TestBaseRestOutboundProcessor
-------------------------------------------------------------------------------
Tests run: 1, Failures: 0, Errors: 0, Skipped: 0, Time elapsed: 1.631 s - in com.sg.dayamed.rest.commons.TestBaseRestOutboundProcessor
