-------------------------------------------------------------------------------
Test set: com.sg.dayamed.rest.controller.web.ProfileControllerTest
-------------------------------------------------------------------------------
Tests run: 2, Failures: 0, Errors: 0, Skipped: 0, Time elapsed: 0 s - in com.sg.dayamed.rest.controller.web.ProfileControllerTest
