-------------------------------------------------------------------------------
Test set: com.sg.dayamed.service.TestUserDetailsService
-------------------------------------------------------------------------------
Tests run: 16, Failures: 0, Errors: 0, Skipped: 0, Time elapsed: 0.047 s - in com.sg.dayamed.service.TestUserDetailsService
